<?xml version="1.0" encoding="UTF-8"?>
<svg width="82px" height="74px" viewBox="0 0 82 74" version="1.1" xmlns="http://www.w3.org/2000/svg" xmlns:xlink="http://www.w3.org/1999/xlink">
    <!-- Generator: Sketch 39.1 (31720) - http://www.bohemiancoding.com/sketch -->
    <title>price-variants</title>
    <desc>Created with Sketch.</desc>
    <defs></defs>
    <g id="Page-1" stroke="none" stroke-width="1" fill="none" fill-rule="evenodd">
        <g id="главная-2" transform="translate(-906.000000, -583.000000)" fill="#FFD734">
            <g id="Group-10" transform="translate(244.000000, 583.000000)">
                <path d="M719.522007,22.310334 C716.502811,23.425108 716.287095,23.7089849 716.125903,23.9210674 C715.85887,24.2782861 714.492048,24.5640198 713.948154,24.2899424 C713.769787,24.201334 713.597525,24.1049891 713.430953,24.0117389 C712.810084,23.6644229 712.16873,23.3048317 711.303486,23.3917896 C710.342644,23.4798822 709.80951,23.6144968 709.076386,24.4624141 C708.753795,24.8325269 708.150618,25.3408647 707.583962,25.5842025 C707.156255,25.7716314 707.056622,25.7204676 707.056415,25.7204676 C706.873496,25.6177272 706.703924,25.5926611 706.612775,25.579148 C706.603877,25.577807 706.594876,25.5767755 706.585978,25.5751251 C706.582357,25.5741967 706.578633,25.5733715 706.575012,25.5723399 C706.156926,25.4719721 705.750325,25.4854851 705.39804,25.6114349 C704.915912,25.7769954 704.591666,26.0576746 704.531348,26.1124488 C704.492447,26.1479334 704.45758,26.187441 704.427163,26.2303526 C703.738217,27.2052512 703.940897,28.3002198 704.360224,29.0002158 C704.751409,29.653174 705.339067,30.0242152 705.905102,29.9831603 C706.119784,30.0351494 706.564459,30.3397601 706.936608,30.6473622 C706.903293,30.6564397 706.869772,30.6655171 706.835837,30.6748009 C706.365607,30.8027106 705.583546,31.0155151 705.379417,31.0318133 C705.290855,31.0199507 705.048963,30.9562022 704.870286,30.9090613 C703.871267,30.6460212 702.738784,30.347806 702.152057,31.0284092 C702.148333,31.0328448 702.144505,31.0372804 702.140884,31.0418191 C702.092257,31.1011321 701.98921,31.1649837 701.880059,31.2326521 C701.497046,31.470007 700.699983,31.9640065 701.179318,33.3311958 C701.306678,33.6825348 701.303057,33.9080271 701.257431,34.0014837 C701.238808,34.0397535 701.212736,34.0505845 701.209632,34.0520287 C700.72978,34.1727176 699.871365,34.9447143 699.964169,35.7925285 C700.053973,36.6126976 700.835724,37.0506851 702.287798,37.0940093 C704.382882,37.1567263 705.143112,36.5177969 705.691455,35.9148679 C705.721459,35.8817558 705.758912,35.8407009 705.787571,35.8115086 C705.868477,35.7979956 705.958281,35.7812848 706.058017,35.7627173 C706.740135,35.6354265 708.009497,35.3986905 709.126668,35.7917033 C709.736674,36.0064677 710.305088,35.5898329 710.962893,35.1075929 C711.162469,34.9611157 711.497165,34.7157148 711.714329,34.6036907 C711.855036,34.9231554 711.810238,35.4820381 711.717743,35.7776745 C711.670048,35.82595 711.567518,35.907544 711.496441,35.9639687 C711.145915,36.2425848 710.416722,36.8220981 710.783802,37.6940501 C710.952547,38.0840714 711.458884,39.0792911 712.514393,39.8977067 C712.663066,40.0127222 712.807394,40.1414571 712.946859,40.2657564 C713.373635,40.6461845 713.817276,41.0396099 714.394898,41.0023717 C714.620753,40.9880334 714.954001,40.8970525 715.264798,40.5390086 C715.657018,40.0762644 715.808899,39.5596744 715.920016,39.1824441 C715.936362,39.1268446 715.955089,39.062374 715.973919,39.0029579 C716.392625,39.0054336 717.18048,39.1692405 717.474826,39.323351 C717.782933,40.132586 718.993736,41.2050672 719.402407,41.3408165 C719.516317,41.3773327 719.938024,41.5606355 720.324347,41.7360986 C720.416531,41.8755614 720.585793,42.1582005 720.806475,42.641369 C721.28612,43.6638211 722.314935,44.0914932 723.496252,43.7566587 C723.945169,43.6263766 724.26269,43.2620403 724.542759,42.9409252 C724.68388,42.7791813 724.946463,42.478181 725.055615,42.4581693 C725.321509,42.4864333 725.547364,42.475499 725.728835,42.4670405 C726.120228,42.4485761 726.237552,42.4433153 726.618909,42.8291074 C727.38214,43.5908919 727.623618,43.8314446 728.236417,44.2911974 C727.011543,48.5494545 724.718746,52.4520403 721.490248,55.6710315 C716.476325,60.6701331 709.809717,63.4231824 702.718713,63.4231824 C698.519751,63.4231824 694.469774,62.4575676 690.823397,60.6320697 C691.232999,59.5751645 691.397605,57.8907799 691.416125,57.6896316 C691.41778,57.673024 691.583628,56.0187601 691.716265,54.3363354 C691.999851,50.7410422 691.873319,50.5049251 691.7233,50.2633409 C691.382293,49.6966186 689.623561,48.044624 688.414517,47.4913115 C687.649009,47.1321329 686.927783,47.1931995 686.348299,47.242094 C685.959182,47.2752061 685.623141,47.3035731 685.347418,47.201658 C685.043243,47.0940695 684.736377,46.6171934 684.46562,46.1965356 C684.195484,45.7765999 683.916139,45.3426354 683.537369,45.0644319 L683.507469,45.0420477 C682.84118,44.5425811 682.474101,44.2675753 681.327754,43.9534746 C680.934706,43.8441325 680.734923,43.1838504 680.589043,42.7018166 C680.515689,42.4589946 680.452268,42.2494909 680.360291,42.0667039 C680.272556,41.8802033 680.355014,41.3595904 680.490548,41.2820193 C680.603424,41.2651023 680.68371,41.258191 680.761409,41.2517955 C681.306648,41.2056862 681.46784,41.155038 683.850338,39.9934326 C684.426615,39.7121345 685.214057,39.2500093 685.399976,38.4863679 C685.58186,37.7391279 685.128494,37.1313507 684.728411,36.5948522 C684.370643,36.1150878 684.03274,35.66204 684.075159,35.149473 C684.135373,34.4356545 684.654436,34.1616803 685.82489,33.7065694 C686.537115,33.4295006 687.273653,33.1430448 687.795303,32.5795202 C688.198801,32.1495787 688.37427,31.6881755 688.316953,31.2085143 C688.211319,30.3260407 687.34442,29.7578743 686.647921,29.3015256 C686.455277,29.1752664 686.273082,29.0560216 686.136721,28.949774 C685.705082,28.6039022 685.145255,28.4763019 684.558942,28.5914206 C683.71108,28.7573938 682.837042,29.4218019 682.38409,30.2448594 C682.296355,30.4040244 682.218139,30.5589601 682.149234,30.6957409 C681.784741,31.4186369 681.760945,31.413995 681.473944,31.3609744 C680.68133,31.2058323 680.559453,31.1821071 680.07836,30.2551747 C680.035424,30.1740964 680.015042,30.121179 680.005524,30.0903362 C680.127711,29.9541743 680.551487,29.7005212 680.928705,29.4748226 C681.332513,29.2332383 681.835023,28.9324443 682.424336,28.5305604 C683.487501,27.8024037 683.92245,27.3037623 683.975526,26.7522034 C684.025808,26.22994 683.705907,25.9059366 683.534058,25.7319176 C683.515021,25.7125248 683.491639,25.6887996 683.473533,25.6694069 C683.310376,24.8615129 682.508243,24.7462911 681.971591,24.6689263 C681.674555,24.626221 681.339859,24.5782549 680.998231,24.4570502 C680.670363,24.2459992 679.926893,23.7903726 679.742836,23.6777296 C680.024043,23.1955927 680.319941,22.7207796 680.632704,22.2557661 C680.703885,22.3040417 680.79224,22.3674807 680.890942,22.4382437 C681.816503,23.1019298 683.742015,24.4824258 685.612278,23.787278 C686.364438,23.4995844 686.595674,23.5352754 686.648956,23.5534303 C686.71962,23.5771555 686.852671,23.7808826 686.970099,23.960575 C687.035176,24.0599113 687.104184,24.1652305 687.182711,24.276842 C687.416946,24.6069314 687.697946,25.0555436 687.9955,25.5306661 C688.15483,25.7851445 688.317884,26.0456057 688.476593,26.2922444 C688.779527,26.7753097 689.045111,27.1574914 689.284209,27.4555003 C689.64146,27.9087544 690.121932,28.0802977 690.651445,28.0800914 C691.767788,28.0800914 693.101089,27.3176879 693.950193,26.8293619 C693.988163,26.8091439 694.024478,26.7858313 694.05893,26.7590115 C695.435685,25.8908763 695.379816,24.5966161 695.338949,23.6494657 C695.327465,23.3847752 695.316705,23.1345261 695.332017,22.9060423 C695.423477,21.5729967 694.540644,21.1405795 694.066276,20.9080727 C693.93457,20.8436021 693.810003,20.7825356 693.747823,20.7317843 C693.641673,20.6203791 693.496413,20.1304026 693.400298,19.8060897 C693.236209,19.2525709 693.05029,18.6251947 692.703489,18.1219114 C691.926187,17.0114698 690.477734,16.9922834 689.381359,17.3446539 C689.377738,17.3458917 689.37391,17.3471295 689.370289,17.3482642 C688.908129,17.505263 688.373443,17.8631006 687.901661,18.1785424 C687.864518,18.2035054 687.825203,18.2297062 687.784957,18.256526 C687.672805,17.8048192 687.47954,17.2721373 687.02276,16.950197 C686.987377,16.925234 686.912264,16.8486945 686.845946,16.7811293 C686.693134,16.6257809 686.490764,16.4210223 686.206868,16.2278168 C690.885681,12.5080181 696.645971,10.4872517 702.718713,10.4872517 C709.809717,10.4872517 716.476325,13.2403009 721.490248,18.2394026 C722.315556,19.0623569 723.07858,19.9306985 723.779528,20.837413 C722.549998,21.2395032 720.935801,21.7882769 719.522007,22.310334 M729.26575,36.9552686 C729.26575,38.9312666 729.04962,40.8740494 728.629258,42.7572098 C728.382607,42.5441989 728.13337,42.2972507 727.647104,41.8119161 C726.877975,41.033627 726.291869,40.9953573 725.660654,41.0245496 C725.507842,41.031564 725.363204,41.0384752 725.210496,41.0224865 C724.374842,40.9312993 723.84057,41.5451625 723.449798,41.9933621 C723.333715,42.1264294 723.1599,42.3256178 723.077338,42.3739965 C722.370907,42.567202 722.194196,42.1910032 722.121567,42.0361706 C721.695411,41.1031521 721.396305,40.7426325 721.340643,40.6800187 C721.274222,40.6050265 721.192798,40.544682 721.101752,40.5026988 C720.889554,40.4050129 720.206195,40.0931815 719.903985,39.9857993 C719.638711,39.8129149 718.941281,39.107555 718.838441,38.8456497 C718.741602,38.3368993 718.256887,37.9881392 717.316324,37.7492369 C716.609893,37.5699571 715.354498,37.3579777 714.885717,37.954305 C714.880026,37.961732 714.874336,37.9692622 714.868749,37.9768955 C714.694314,38.2178608 714.610821,38.5015314 714.530018,38.7759183 C714.457906,39.0213192 714.383621,39.2735281 714.252226,39.4800404 C714.148454,39.3996842 714.017887,39.2832245 713.912253,39.189149 C713.761717,39.054947 713.59111,38.9028996 713.403122,38.7573507 C712.899267,38.3667105 712.451385,37.818762 712.183214,37.2727734 C712.248084,37.2133573 712.337267,37.1425944 712.399137,37.0932873 C712.639891,36.9020417 712.912717,36.6852142 713.047216,36.3598697 C713.05001,36.3528553 713.052907,36.3457378 713.055493,36.3387234 C713.235101,35.8622599 713.540621,34.3014525 712.620337,33.4129961 C711.847794,32.6655498 710.840395,33.4047439 710.104581,33.9440275 C709.906039,34.0898858 709.620694,34.29908 709.46095,34.380674 C708.025637,33.9266978 706.580288,34.1961333 705.791709,34.3431263 C705.669418,34.3659231 705.563992,34.3857285 705.491155,34.3961469 C705.061275,34.4578324 704.805416,34.7392337 704.618462,34.9447143 C704.313356,35.2801678 703.93531,35.6976278 702.330838,35.6504869 C701.909131,35.6377991 701.654617,35.5908645 701.507806,35.5489844 C701.550122,35.5026687 701.597403,35.4591381 701.63527,35.4323184 C702.017455,35.3146208 702.342839,35.0442569 702.535277,34.6816743 C702.800964,34.1811762 702.80293,33.5618458 702.544071,32.8474084 C702.491823,32.6981461 702.478994,32.6112913 702.4762,32.5694112 C702.516964,32.5383622 702.588869,32.493697 702.644738,32.4590376 C702.794963,32.3658905 702.992988,32.2432416 703.17301,32.0562253 C703.457424,32.0306433 704.179581,32.2208574 704.500413,32.3053397 C704.927603,32.4178795 705.160287,32.4765736 705.370209,32.4765736 C705.68142,32.4765736 706.196345,32.3457756 707.217194,32.0679847 C707.618001,31.958952 708.072298,31.8352716 708.237318,31.8086582 C708.686959,31.7369669 708.978409,31.3448825 708.915091,30.8967861 C708.85798,30.493458 708.442274,29.9857391 707.67956,29.3875552 C706.617224,28.5544919 706.076847,28.5194199 705.849957,28.5373685 C705.761188,28.4830069 705.572786,28.2857784 705.477912,27.9763196 C705.412525,27.7628961 705.378279,27.4508584 705.561922,27.1384081 C705.626792,27.0919893 705.738634,27.0215358 705.872202,26.9759422 C705.876961,26.9743949 705.881617,26.9727445 705.886376,26.9711972 C705.925174,26.9568589 706.035566,26.9292139 706.229349,26.9748075 C706.29784,26.9925498 706.356192,27.0012147 706.399542,27.0076102 C707.110939,27.3688518 707.874584,27.0344299 708.161895,26.9084802 C708.989376,26.5531182 709.760573,25.8790137 710.171624,25.4075015 C710.591882,24.9213416 710.736831,24.8940061 711.44202,24.8293292 C711.840552,24.7898216 712.154349,24.9536285 712.722142,25.2711333 C712.903923,25.3728421 713.091808,25.4778518 713.298316,25.5805922 C714.431937,26.1515438 716.506536,25.7498662 717.24804,24.83459 C717.767414,24.4603511 721.109822,23.2141602 724.67374,22.0656552 C727.658795,26.4213919 729.26575,31.5649077 729.26575,36.9552686 M689.974293,57.5518193 C689.916355,58.1828059 689.754439,59.2682845 689.533757,59.9398102 C687.515441,58.7846003 685.637005,57.3559318 683.947074,55.6710315 C678.933048,50.6717234 676.171676,44.0250627 676.171676,36.9552686 C676.171676,32.7116592 677.167797,28.6211287 679.047579,24.9471299 C679.34296,25.1295043 680.180786,25.6475384 680.277212,25.7089144 C680.323045,25.7397572 680.372396,25.7653391 680.424333,25.7851445 C680.935948,25.9792783 681.395521,26.0453994 681.764876,26.09842 C681.871338,26.1136866 682.003561,26.1328731 682.100193,26.1521627 C682.178927,26.3874546 682.322841,26.5587916 682.438304,26.6797901 C682.31922,26.8035736 682.079915,27.0145214 681.605443,27.3394532 C681.052755,27.7163741 680.570731,28.0046866 680.183269,28.2365745 C679.085135,28.893762 678.047939,29.5143301 678.794824,30.9242247 C679.484184,32.2525254 679.974485,32.5393937 681.20267,32.7795338 C682.589874,33.0356626 683.083382,32.0582883 683.443323,31.3444699 C683.509848,31.2125373 683.578753,31.076169 683.653762,30.9396977 C683.895758,30.5001629 684.416062,30.0911615 684.838286,30.0083296 C685.085662,29.9597446 685.190778,30.0444332 685.230196,30.0762043 C685.233197,30.07868 685.236094,30.0808462 685.239198,30.0833218 C685.423461,30.2273234 685.631935,30.3638979 685.85241,30.5084152 C686.151826,30.7046121 686.852877,31.1639522 686.878639,31.3795419 C686.879674,31.3886193 686.859706,31.4629926 686.734311,31.5964726 C686.43593,31.9186192 685.883449,32.13359 685.298481,32.3611454 C684.23304,32.7755108 682.773931,33.3428521 682.631672,35.0296092 C682.544248,36.0865144 683.134906,36.8783165 683.566131,37.4564888 C683.726185,37.6712533 683.993942,38.0303287 683.992597,38.1453443 C683.991976,38.1473042 683.91376,38.3546416 683.213743,38.696181 C680.983643,39.7837227 680.903771,39.7903244 680.639325,39.8127086 C680.547866,39.820342 680.434059,39.8300383 680.282281,39.8529383 C679.794877,39.9209161 679.388793,40.2206786 679.139245,40.6971421 C678.821103,41.3044035 678.790685,42.1736735 679.066719,42.7164643 C679.101585,42.7855768 679.155178,42.9626904 679.202356,43.118864 C679.417659,43.8304131 679.777909,45.0217266 680.941224,45.3453174 C681.824366,45.5872111 682.029116,45.7408059 682.637259,46.1965356 L682.672746,46.2230459 C682.841594,46.3470358 683.047481,46.6669131 683.24654,46.976372 C683.642692,47.5918856 684.091712,48.2896122 684.853185,48.5591509 C685.422841,48.7698924 685.97946,48.7225452 686.470796,48.6811809 C686.960891,48.6397134 687.384046,48.6038161 687.804097,48.8009414 C688.708553,49.2146879 690.108172,50.5226674 690.430142,50.9338351 C690.492529,51.6190802 690.254362,54.7635949 689.974293,57.5518193 M683.947074,18.2394026 C684.295944,17.8915708 684.653712,17.5557048 685.018308,17.2297415 C685.393768,17.3680696 685.605553,17.5825246 685.811233,17.7919251 C685.924937,17.9075596 686.042365,18.0271138 686.184313,18.1279974 C686.299775,18.2120671 686.40334,18.7027657 686.442345,18.8875126 C686.532045,19.312606 686.63354,19.7939177 687.117634,19.9615412 C687.58507,20.1295774 687.986602,19.8608639 688.708863,19.3776955 C689.084012,19.1267243 689.550414,18.8145835 689.831724,18.7173103 C689.984846,18.6687252 691.092809,18.3439997 691.51255,18.943731 C691.726301,19.2540151 691.871146,19.7427538 692.011232,20.2154006 C692.204704,20.8680494 692.387312,21.4842851 692.818331,21.838925 C693.018527,22.0038666 693.235899,22.1105267 693.427612,22.2043959 C693.84756,22.4100829 693.912119,22.4416477 693.886978,22.8083565 C693.866079,23.1171964 693.879115,23.4194346 693.891738,23.7115638 C693.932398,24.651803 693.924017,25.1295043 693.296941,25.5306661 C693.262799,25.5488211 693.228346,25.5706895 693.194101,25.5968903 C690.93648,26.888778 690.502461,26.6636982 690.419279,26.558379 C690.211426,26.2992588 689.977604,25.9617423 689.700329,25.5195256 C689.540482,25.270927 689.380428,25.0155203 689.224098,24.7658901 C688.915267,24.2726127 688.623508,23.8066708 688.366407,23.4446039 C688.299675,23.3497032 688.240081,23.2584128 688.183799,23.172177 C687.505509,22.1340456 686.870155,21.7592909 685.099836,22.4366964 C683.960628,22.8603456 682.513727,21.8229363 681.736632,21.2659103 C681.640206,21.1967979 681.553195,21.1344935 681.47291,21.0793066 C682.223829,20.084809 683.048723,19.135286 683.947074,18.2394026 M702.718713,9.04311029 C695.975854,9.04311029 689.597696,11.4045909 684.532146,15.7337142 C684.35202,15.7945744 684.200864,15.9249597 684.115405,16.0981536 C683.709321,16.4591889 683.310789,16.8315711 682.922914,17.2183947 C677.635337,22.4902328 674.723223,29.4995793 674.723223,36.9552686 C674.723223,44.4108548 677.635337,51.4202013 682.922914,56.6921426 C688.210492,61.9639807 695.240868,64.8673238 702.718713,64.8673238 C710.196558,64.8673238 717.22683,61.9639807 722.514408,56.6921426 C727.802088,51.4202013 730.714203,44.4108548 730.714203,36.9552686 C730.714203,29.4995793 727.802088,22.4902328 722.514408,17.2183947 C717.22683,11.9464534 710.196558,9.04311029 702.718713,9.04311029 M743.28698,42.5293449 L739.62643,36.722865 C739.624774,36.7200799 739.622602,36.7178105 739.62105,36.7151285 C739.605013,36.690475 739.587942,36.6667498 739.56994,36.6437467 C739.566215,36.6390016 739.563008,36.633844 739.559387,36.6292021 C739.537764,36.6026918 739.514485,36.5773162 739.490275,36.5528689 C739.482826,36.5454419 739.474653,36.5386338 739.466789,36.53131 C739.449201,36.5148055 739.431302,36.4987136 739.412473,36.4835501 C739.402954,36.4758137 739.393022,36.4686961 739.383193,36.4613723 C739.364777,36.4475498 739.345947,36.4343462 739.3266,36.4218647 C739.316668,36.4154692 739.306632,36.40928 739.296493,36.4032971 C739.27549,36.3908156 739.253867,36.3792625 739.231933,36.3683283 C739.222725,36.3638927 739.213828,36.3591477 739.204516,36.3549184 C739.179065,36.3433653 739.153096,36.33305 739.126713,36.3236631 C739.120092,36.3211874 739.113677,36.3185054 739.107056,36.316236 C739.03991,36.293955 738.969763,36.2784821 738.89703,36.2710551 C738.895375,36.2709519 738.893719,36.2704361 738.892168,36.270333 C738.882856,36.2694046 738.873648,36.2698172 738.864337,36.2691983 C738.844472,36.2678573 738.824608,36.2657943 738.804329,36.2656911 L738.796363,36.2656911 C738.793776,36.2656911 738.791293,36.2660006 738.788707,36.2661037 C738.773291,36.2662069 738.758082,36.267651 738.742667,36.2683731 C738.722595,36.2694046 738.70242,36.2705393 738.682556,36.2728087 C738.66745,36.2745623 738.652449,36.2771411 738.637343,36.2797199 C738.617272,36.2829176 738.597304,36.286528 738.57775,36.2909636 C738.563576,36.2941613 738.549815,36.2978748 738.535848,36.3016915 C738.515363,36.3072617 738.495188,36.3135541 738.47522,36.3204653 C738.462494,36.3249009 738.449769,36.3293365 738.43725,36.3342878 C738.416144,36.34254 738.395659,36.3518238 738.375277,36.3615202 C738.36431,36.366781 738.353343,36.371526 738.342687,36.3770963 C738.318166,36.3898873 738.29437,36.4040192 738.271195,36.4186669 C738.265298,36.4225867 738.25909,36.4256813 738.253193,36.4296011 C738.224534,36.4485813 738.197117,36.469315 738.170735,36.4910803 C738.162872,36.4974758 738.155733,36.5046965 738.147973,36.5115046 C738.129454,36.5279059 738.111141,36.5447198 738.093863,36.5625653 C738.090552,36.5658662 738.086828,36.5687545 738.08362,36.5721585 L733.240615,41.6886483 C732.868983,42.0812484 732.886882,42.6998567 733.280551,43.070279 C733.67422,43.4408044 734.294778,43.4229589 734.666306,43.0303588 L737.698539,39.8268406 C736.556537,53.7401113 727.184116,65.7438144 713.719505,70.1759875 C713.46075,70.2611918 713.20127,70.3426827 712.941479,70.4216978 C712.799117,70.4649189 712.656134,70.5057675 712.513254,70.5470287 C712.404724,70.5786966 712.296297,70.610674 712.187559,70.6413105 C711.980017,70.6992824 711.77206,70.7550882 711.56369,70.8091403 C711.530686,70.817702 711.497786,70.8266763 711.464885,70.8351349 C704.252831,72.6846674 696.598896,72.2037683 689.665152,69.4290569 C689.641563,69.4195669 689.618077,69.4103862 689.594488,69.400793 C689.4035,69.3239441 689.213649,69.2447226 689.024315,69.1645728 C688.947133,69.1318733 688.870158,69.0988643 688.793287,69.0656491 C688.637992,68.9984965 688.483215,68.9306218 688.329058,68.8613031 C688.220114,68.8124086 688.11148,68.7623794 688.002949,68.712247 C687.870105,68.6509742 687.737365,68.5897013 687.605452,68.5268812 C687.483989,68.4691155 687.363043,68.4092868 687.241994,68.3499739 C687.115979,68.2881852 686.989653,68.2271187 686.864569,68.1639891 C686.786973,68.124791 686.710515,68.0840455 686.633333,68.0443317 C680.387708,64.8291572 675.214973,59.8052988 671.869667,53.6382993 C671.863563,53.6271588 671.856528,53.6170498 671.850113,53.6063219 C670.877684,51.805065 670.055584,49.9061222 669.398917,47.9232129 C669.229241,47.4104396 668.674898,47.1322361 668.160697,47.3014069 C667.646703,47.4707841 667.367358,48.0233745 667.537138,48.5358383 C670.597822,57.7784463 677.040127,65.3005662 685.698461,69.7627567 C685.793231,69.8114449 685.887173,69.8614741 685.982357,69.9095434 C686.006774,69.9218186 686.03057,69.9347127 686.054883,69.9470911 C686.254356,70.0471494 686.454656,70.1448353 686.655267,70.2411802 C686.675856,70.2510828 686.696755,70.2607792 686.717344,70.2705787 C686.940819,70.3774452 687.164916,70.4819392 687.389736,70.5840606 C687.398013,70.5879804 687.40629,70.591797 687.414567,70.5955106 C692.275678,72.7995798 697.462381,73.9130128 702.681984,73.9130128 C706.589496,73.9130128 710.515941,73.2887311 714.334063,72.0320186 C728.423061,67.394468 738.268712,54.9051208 739.617946,40.3826287 L741.627053,43.5696424 C741.813283,43.8649694 742.131943,44.0269195 742.457948,44.0269195 C742.636108,44.0269195 742.816647,43.9784376 742.978667,43.8769351 C743.436895,43.5896541 743.574912,42.9863125 743.28698,42.5293449 M698.950873,42.3634749 C699.255979,42.0106918 700.982432,40.9087088 701.652134,40.9087088 C701.660308,40.9087088 701.666722,40.9091214 701.671481,40.9093277 C701.865988,40.996492 702.07353,41.0408477 702.288833,41.0408477 C702.804999,41.0406414 703.246053,40.7922491 703.635066,40.5730491 C703.856266,40.4483371 704.131575,40.2931951 704.264729,40.2931951 C704.270833,40.2931951 704.275593,40.2936077 704.271972,40.2925762 C704.873183,40.4715466 705.707181,40.9562623 706.316049,41.3101801 C706.621155,41.4875 706.884567,41.6406822 707.095937,41.7438351 C707.655454,42.0104855 708.138306,42.0104855 708.526285,42.0104855 C708.844944,42.0104855 709.096665,42.0104855 709.407461,42.1475758 C710.06899,42.4321748 710.581122,43.2495588 710.695343,43.8817833 C710.713966,43.9800881 711.166504,46.2901985 712.44166,46.638546 C712.592609,46.681045 712.757112,46.7017788 712.944273,46.7017788 C713.113017,46.7017788 713.277831,46.6848617 713.4234,46.6701108 C713.466854,46.6656753 713.509273,46.6612397 713.549726,46.6576293 C713.475958,46.9854494 713.189061,47.5350484 712.783494,47.9271328 L712.744697,47.9647836 C711.873142,48.8069243 711.256308,49.4577163 711.256308,50.1654487 L711.256308,52.9900861 C711.246893,53.4073398 710.586088,55.1041028 710.213732,55.4117049 C710.003706,55.586446 709.799992,55.8044082 709.584379,56.0350582 C709.351489,56.2841726 708.925954,56.7396961 708.723584,56.8087054 C708.277564,56.6739876 706.994028,55.574996 706.650228,55.1882756 C706.490277,54.5735872 706.358158,51.7184165 706.41713,51.2977587 C706.500623,50.7295923 706.385575,48.6949002 705.983112,48.0611284 C705.772258,47.7268097 705.130594,46.7096184 703.88927,46.7096184 C703.81933,46.7096184 703.747942,46.7128162 703.685555,46.7189022 C703.078653,46.7688282 702.486029,47.03847 701.963138,47.2763408 C701.734799,47.3803189 701.400517,47.5324695 701.24905,47.564447 C701.080099,47.4682053 700.740023,47.0839605 700.516651,46.7313837 C700.481681,46.6759906 700.439262,46.6256519 700.390739,46.5815024 C699.639405,45.8997646 698.903281,45.0769134 698.817512,44.82914 C698.816477,44.8251171 698.815443,44.8213004 698.814408,44.8173806 C698.682082,44.3294671 698.773127,42.7245103 698.950873,42.3634749 M697.759728,41.5399017 C697.254321,42.2627976 697.21811,44.4517034 697.414582,45.1885249 C697.604433,45.9192605 698.775093,47.0621952 699.344645,47.5846649 C699.665788,48.0744352 700.389083,49.0144681 701.209528,49.0144681 C701.632373,49.0144681 702.064322,48.8178585 702.564556,48.5902 C702.979434,48.40143 703.449975,48.1871814 703.813226,48.1573701 C703.839195,48.1549976 703.864646,48.1537598 703.88927,48.1537598 C704.195824,48.1537598 704.453545,48.3524324 704.750478,48.8198184 C704.897082,49.1367043 705.051343,50.6298433 704.983472,51.0921749 C704.921396,51.5304718 704.979748,52.8693972 705.019373,53.5159599 C705.148803,55.6308018 705.321065,55.8457726 705.459599,56.0181411 L705.45991,56.0179348 C705.669832,56.2660177 707.616449,58.2581076 708.715411,58.2581076 C709.486505,58.2581076 710.101477,57.6000949 710.644026,57.0196532 C710.827876,56.8230437 711.001484,56.6372652 711.139707,56.5222496 C711.919182,55.8783689 712.704761,53.6948271 712.704761,52.991324 L712.704761,50.1938158 C712.790219,49.9319104 713.438402,49.3053594 713.752716,49.0017802 L713.791825,48.9639231 C714.412487,48.3638824 715.23438,47.1012902 714.960726,46.0763624 C714.891614,45.807649 714.634824,45.2034821 713.724575,45.2034821 C713.570729,45.2034821 713.420917,45.2187487 713.276175,45.2334996 C713.154298,45.2459811 713.03925,45.2576374 712.944273,45.2576374 C712.887473,45.2576374 712.857055,45.2534081 712.843605,45.250623 C712.649823,45.1246732 712.267431,44.3977544 712.119689,43.6194653 C711.942564,42.6390996 711.198059,41.3452521 709.987463,40.8241234 C709.402495,40.5663441 708.916643,40.5663441 708.526285,40.5663441 C708.211453,40.5663441 707.983942,40.5663441 707.726635,40.4436953 C707.56865,40.3665369 707.326241,40.2257331 707.045552,40.0625451 C706.336224,39.6501396 705.453288,39.1369536 704.679297,38.9069225 C704.545833,38.8685496 704.406367,38.8490537 704.264729,38.8490537 C703.750632,38.8490537 703.310613,39.0970334 702.922531,39.3156145 C702.700193,39.4409454 702.423849,39.5967063 702.288626,39.5967063 C702.276107,39.5967063 702.272072,39.5952622 702.273624,39.5960874 C702.092257,39.5089232 701.883266,39.4645674 701.652134,39.4645674 C700.37822,39.4645674 698.171088,40.9568812 697.759728,41.5399017 M672.156771,30.8399488 C671.763103,30.4697328 671.142647,30.487372 670.771016,30.8800753 L667.738887,34.0834903 C668.880785,20.1701165 678.253206,8.16672278 691.718024,3.73444658 C691.976469,3.64934539 692.235535,3.56816401 692.494912,3.48914885 C692.641516,3.44458677 692.788534,3.40260352 692.935448,3.3601045 C693.03953,3.32988068 693.143405,3.2991411 693.247486,3.26994882 C693.460202,3.21053271 693.673228,3.15328282 693.886771,3.09788969 C693.913878,3.09087529 693.940985,3.08355143 693.968092,3.07653702 C701.1788,1.22628246 708.831494,1.7059437 715.76441,4.47828254 C715.792448,4.48952621 715.82059,4.50066673 715.848524,4.5119104 C716.036202,4.58752152 716.222639,4.66529885 716.408558,4.74400456 C716.488844,4.77794188 716.568819,4.81218866 716.648691,4.8467449 C716.801813,4.91286594 716.954314,4.97981221 717.106092,5.04809947 C717.216795,5.09781919 717.326981,5.14857045 717.437373,5.19942486 C717.569079,5.2602851 717.700785,5.32093904 717.831766,5.38334658 C717.952609,5.44090592 718.072727,5.50032203 718.193052,5.55922237 C718.320309,5.62173306 718.44798,5.68341852 718.574305,5.7472702 C718.646521,5.78358004 718.717702,5.82154033 718.789504,5.85846909 C725.041751,9.07333411 730.219763,14.1002871 733.567965,20.2720316 C733.573242,20.281728 733.579449,20.2905991 733.584933,20.2999861 C734.558397,22.1023777 735.381325,24.0025583 736.038508,25.9872211 C736.17456,26.3981825 736.557779,26.6585406 736.969243,26.6585406 C737.071048,26.6585406 737.174613,26.6424487 737.276625,26.608924 C737.790723,26.43965 738.06986,25.8871628 737.900288,25.3743894 C734.838362,16.1279648 728.391609,8.60316294 719.727481,4.14190075 C719.636953,4.09517246 719.547045,4.04741264 719.455999,4.00140643 C719.431376,3.98902807 719.407373,3.97582449 719.382542,3.96344614 C719.281047,3.91248858 719.178621,3.86452245 719.076608,3.81439012 C718.941799,3.74826907 718.807196,3.68173542 718.671352,3.61705851 C718.538611,3.55382575 718.40525,3.49244974 718.271889,3.43086743 C718.149598,3.37433961 718.027308,3.31791494 717.904293,3.26272811 C717.748584,3.19279041 717.592565,3.12450315 717.436235,3.05683481 C717.346638,3.0180493 717.256834,2.97957325 717.166823,2.94140665 C716.974593,2.85991582 716.781845,2.77997228 716.58858,2.70188549 C716.574302,2.69621208 716.560232,2.68991975 716.545851,2.68414318 C716.526193,2.6762004 716.506329,2.6689797 716.486568,2.66114007 C709.150568,-0.280782228 701.158936,-0.797991148 693.486481,1.18192669 C693.448718,1.19162306 693.411162,1.20183521 693.373502,1.21153158 C693.156234,1.26836886 692.939069,1.32592821 692.722319,1.38678846 C692.605098,1.4195911 692.48829,1.45435364 692.371276,1.48839412 C692.222706,1.53151205 692.073929,1.57370161 691.92567,1.61877945 C691.650878,1.70223019 691.376706,1.78846607 691.103466,1.87841544 C677.014365,6.51606918 667.168714,19.0053133 665.81948,33.5278053 L663.810372,30.3408948 C663.522233,29.8839272 662.917194,29.7460117 662.458552,30.033499 C662.000323,30.3207799 661.86241,30.9240184 662.150445,31.3810892 L665.810892,37.1875691 C665.812858,37.1905605 665.815134,37.1931393 665.816997,37.1961308 C665.832102,37.219237 665.848138,37.2415181 665.865002,37.2632833 C665.869658,37.2692662 665.873797,37.2756617 665.878556,37.2816446 C665.899972,37.3080517 665.922837,37.3330147 665.94684,37.3570494 C665.955013,37.3651985 665.963911,37.3727286 665.972395,37.3805682 C665.989259,37.3964538 666.006434,37.4118236 666.024436,37.4264713 C666.034471,37.4345172 666.044921,37.4420474 666.055267,37.449887 C666.073269,37.4630906 666.091375,37.4759847 666.110308,37.4881568 C666.120758,37.4947586 666.131104,37.5012572 666.14176,37.5075495 C666.162142,37.5196184 666.183145,37.5309653 666.204561,37.5414869 C666.214287,37.546335 666.223805,37.5512864 666.23353,37.5558251 C666.258361,37.5670688 666.283709,37.5770746 666.309471,37.5862552 C666.316609,37.5888341 666.323645,37.5919287 666.330887,37.5943012 C666.397723,37.6165822 666.467766,37.631952 666.540292,37.6392759 C666.542051,37.6394822 666.543603,37.6399979 666.545361,37.6401011 C666.561915,37.6416484 666.578366,37.6417515 666.594919,37.6425768 C666.607748,37.6431957 666.620267,37.6446398 666.6332,37.644743 L666.641063,37.644743 C666.778045,37.644743 666.908509,37.6163759 667.027076,37.5657278 C667.0308,37.5640774 667.034525,37.5619111 667.038353,37.5602607 C667.064011,37.549017 667.089256,37.536845 667.113672,37.5233319 C667.121432,37.5189995 667.128881,37.5140482 667.136641,37.5095094 C667.156505,37.49775 667.17637,37.4859906 667.195303,37.4729933 C667.205028,37.4663915 667.214236,37.4588613 667.223755,37.4518469 C667.240205,37.439778 667.256448,37.4277091 667.272071,37.4146087 C667.2819,37.4062533 667.291315,37.397279 667.30104,37.388511 C667.315421,37.3753074 667.329699,37.3621039 667.343459,37.3480751 C667.34677,37.344671 667.350494,37.3416796 667.353909,37.3381724 L672.196811,32.2215795 C672.568442,31.8290825 672.55044,31.2105773 672.156771,30.8399488" id="price-variants"></path>
            </g>
        </g>
    </g>
</svg>