<?xml version="1.0" encoding="UTF-8"?>
<svg width="59px" height="69px" viewBox="0 0 59 69" version="1.1" xmlns="http://www.w3.org/2000/svg" xmlns:xlink="http://www.w3.org/1999/xlink">
    <!-- Generator: Sketch 39.1 (31720) - http://www.bohemiancoding.com/sketch -->
    <title>search-offers</title>
    <desc>Created with Sketch.</desc>
    <defs></defs>
    <g id="Page-1" stroke="none" stroke-width="1" fill="none" fill-rule="evenodd">
        <g id="главная" transform="translate(-203.000000, -1794.000000)" fill="#7ACDD5">
            <g id="Group-16" transform="translate(197.000000, 1594.000000)">
                <path d="M39.008517,234.638769 L31.5673413,234.638769 C31.090259,234.638769 30.7035089,235.02552 30.7035089,235.502602 C30.7035089,235.979684 31.090259,236.366434 31.5673413,236.366434 L39.008517,236.366434 C39.4855993,236.366434 39.8723494,235.979684 39.8723494,235.502602 C39.8723494,235.02552 39.4855993,234.638769 39.008517,234.638769 L39.008517,234.638769 Z M45.1710974,230.168067 L31.5673413,230.168067 C31.090259,230.168067 30.7035089,230.554817 30.7035089,231.031899 C30.7035089,231.508981 31.090259,231.895731 31.5673413,231.895731 L45.1710974,231.895731 C45.6484265,231.895731 46.0349298,231.508981 46.0349298,231.031899 C46.0349298,230.554817 45.6484265,230.168067 45.1710974,230.168067 L45.1710974,230.168067 Z M17.9352021,244.037143 L31.5390816,244.037143 C32.0162873,244.037143 32.402914,243.650393 32.402914,243.17331 C32.402914,242.696105 32.0162873,242.309478 31.5390816,242.309478 L17.9352021,242.309478 C17.4581198,242.309478 17.0713697,242.696105 17.0713697,243.17331 C17.0713697,243.650393 17.4581198,244.037143 17.9352021,244.037143 L17.9352021,244.037143 Z M59.6663285,247.74249 C59.2841444,248.124674 58.9569987,248.547582 58.6892107,249.001711 C58.4246311,248.548322 58.101928,248.126278 57.7246801,247.745328 C57.3471853,247.363885 56.9288436,247.037356 56.478787,246.769445 C57.3959302,246.234362 58.1578303,245.472585 58.6929128,244.555319 C58.9607009,245.005252 59.2871061,245.423717 59.6685498,245.801212 C60.0496233,246.178336 60.4719139,246.501163 60.9255494,246.765742 C60.4712969,247.033654 60.0483893,247.360553 59.6663285,247.74249 L59.6663285,247.74249 Z M64.1360442,245.89611 L64.1343165,245.89611 C62.9001468,245.89611 61.7459433,245.426432 60.883962,244.573212 C60.0218573,243.719869 59.5473665,242.575045 59.5477367,241.34939 C59.5479835,240.872431 59.1614802,240.485557 58.6841511,240.485311 L58.6839043,240.485311 C58.2069454,240.485311 57.8203187,240.871937 57.8200719,241.348896 C57.819208,243.898683 55.8220275,245.895863 53.2733517,245.895987 C52.7962694,245.895987 52.4095193,246.282737 52.4095193,246.759819 C52.4095193,247.236901 52.7962694,247.623651 53.2733517,247.623651 C55.8219041,247.623528 57.8197017,249.638849 57.8213059,252.211465 C57.8215527,252.688424 58.2081794,253.074804 58.6851383,253.074804 L58.6856319,253.074804 C59.1627142,253.074557 59.5492175,252.687437 59.5489707,252.210478 C59.5481069,250.980998 60.0235849,249.828275 60.8879109,248.964319 C61.7521136,248.10024 62.9057,247.624268 64.1364144,247.623775 C64.1439421,247.623775 64.151223,247.623775 64.1586272,247.623528 C64.625467,247.611681 65,247.229497 65,246.759696 C64.9997532,246.282737 64.6131265,245.89611 64.1360442,245.89611 L64.1360442,245.89611 Z M45.1710974,225.697364 L31.5673413,225.697364 C31.090259,225.697364 30.7035089,226.084114 30.7035089,226.561196 C30.7035089,227.038402 31.090259,227.425028 31.5673413,227.425028 L45.1710974,227.425028 C45.6484265,227.425028 46.0349298,227.038402 46.0349298,226.561196 C46.0349298,226.084114 45.6484265,225.697364 45.1710974,225.697364 L45.1710974,225.697364 Z M25.3763778,246.780057 L17.9352021,246.780057 C17.4581198,246.780057 17.0713697,247.166807 17.0713697,247.64389 C17.0713697,248.120972 17.4581198,248.507722 17.9352021,248.507722 L25.3763778,248.507722 C25.8534601,248.507722 26.2402102,248.120972 26.2402102,247.64389 C26.2402102,247.166807 25.8534601,246.780057 25.3763778,246.780057 L25.3763778,246.780057 Z M50.1396146,238.245393 C50.1396146,238.845386 49.6513024,239.333575 49.0511857,239.333575 L40.7297648,239.333575 C40.5007258,239.333575 40.2810655,239.424648 40.1189119,239.586678 L34.7321764,244.973537 L34.7321764,240.197408 C34.7321764,239.720325 34.3454263,239.333575 33.868344,239.333575 L27.6873763,239.333575 C27.0871362,239.333575 26.5989475,238.845386 26.5989475,238.245393 L26.5989475,223.123637 C26.5989475,222.523643 27.0871362,222.035331 27.6873763,222.035331 L49.0511857,222.035331 C49.6513024,222.035331 50.1396146,222.523643 50.1396146,223.123637 L50.1396146,238.245393 Z M18.7990345,233.368195 L24.8712827,233.368195 L24.8712827,228.236414 L18.7990345,228.236414 L18.7990345,233.368195 Z M17.9352021,226.508749 C17.4581198,226.508749 17.0713697,226.895376 17.0713697,227.372581 L17.0713697,234.232028 C17.0713697,234.70911 17.4581198,235.09586 17.9352021,235.09586 L24.8712827,235.09586 L24.8712827,237.838775 L17.9352021,237.838775 C17.4581198,237.838775 17.0713697,238.225525 17.0713697,238.702607 C17.0713697,239.17969 17.4581198,239.56644 17.9352021,239.56644 L25.2013901,239.56644 C25.6755107,240.454953 26.6117816,241.06124 27.6873763,241.06124 L33.0045116,241.06124 L33.0045116,247.058952 C33.0045116,247.40831 33.2149165,247.723362 33.537743,247.85701 C33.6446114,247.901312 33.7567862,247.922784 33.8680972,247.922784 C34.0929404,247.922784 34.3138347,247.835043 34.4791969,247.669805 L35.132501,247.016501 L35.132501,258.185854 L13.3218435,258.185854 L13.3218435,219.117552 L35.132501,219.117552 L35.132501,220.307666 L27.6873763,220.307666 C26.1345759,220.307666 24.8712827,221.57096 24.8712827,223.123637 L24.8712827,226.508749 L17.9352021,226.508749 Z M40.7268031,261.95241 C40.7268031,264.408409 38.7175289,266.406453 36.2477086,266.406453 L12.2071294,266.406453 C9.73718579,266.406453 7.72766481,264.408409 7.72766481,261.95241 L7.72766481,217.771825 C7.72766481,215.315456 9.73718579,213.317041 12.2071294,213.317041 L36.2477086,213.317041 C38.7175289,213.317041 40.7268031,215.315456 40.7268031,217.771825 L40.7268031,220.307666 L36.8601658,220.307666 L36.8601658,218.25372 C36.8601658,217.776638 36.4734157,217.389887 35.9963334,217.389887 L12.4580111,217.389887 C11.9808054,217.389887 11.5941786,217.776638 11.5941786,218.25372 L11.5941786,259.049686 C11.5941786,259.526768 11.9808054,259.913518 12.4580111,259.913518 L35.9963334,259.913518 C36.4734157,259.913518 36.8601658,259.526768 36.8601658,259.049686 L36.8601658,245.34301 C36.8601658,245.32561 36.8585616,245.308457 36.8574509,245.291427 L40.7268031,241.422075 L40.7268031,261.95241 Z M49.0511857,220.307666 L42.4544679,220.307666 L42.4544679,217.771825 C42.4544679,214.362772 39.6700892,211.589376 36.2477086,211.589376 L12.2071294,211.589376 C8.78450205,211.589376 6,214.362772 6,217.771825 L6,261.95241 C6,265.361092 8.78450205,268.134118 12.2071294,268.134118 L36.2477086,268.134118 C39.6700892,268.134118 42.4544679,265.361092 42.4544679,261.95241 L42.4544679,241.06124 L49.0511857,241.06124 C50.6039862,241.06124 51.8672794,239.79807 51.8672794,238.245393 L51.8672794,223.123637 C51.8672794,221.57096 50.6039862,220.307666 49.0511857,220.307666 L49.0511857,220.307666 Z M32.402914,203.121351 C32.4030374,203.342492 32.4873228,203.563509 32.6560169,203.73208 C32.8248344,203.900651 33.0457287,203.984936 33.2667464,203.984936 C33.4878875,203.984936 33.7090286,203.900527 33.8777227,203.73171 C34.0197615,203.589671 34.2051152,203.511433 34.3996009,203.511433 C34.589027,203.511433 34.7684574,203.586709 34.9048195,203.723195 C35.0735136,203.892012 35.2947781,203.976421 35.5159192,203.976421 L35.5185107,203.976421 C35.9954696,203.976421 36.3823431,203.589671 36.3823431,203.112589 C36.3823431,202.860226 36.2741172,202.633285 36.1014742,202.475327 C35.841584,202.188782 35.8498521,201.759581 36.1267721,201.482784 C36.2954662,201.314213 36.3797516,201.093072 36.3797516,200.872054 C36.3797516,200.650913 36.2954662,200.429896 36.1267721,200.261201 C35.7893839,199.923813 35.2424545,199.923813 34.9050663,200.261201 C34.7687042,200.397687 34.589027,200.47284 34.3996009,200.472964 C34.2048684,200.472964 34.0192679,200.394725 33.8771057,200.252563 C33.5395941,199.915545 32.9926647,199.915792 32.6555233,200.253427 C32.4868292,200.422245 32.4027906,200.643386 32.402914,200.864527 C32.4030374,201.085544 32.4875696,201.306562 32.6562637,201.475133 C32.7953407,201.614086 32.871975,201.797713 32.871975,201.992075 C32.871975,202.186807 32.7950939,202.370927 32.6557701,202.510498 C32.487076,202.679192 32.4027906,202.900333 32.402914,203.121351 L32.402914,203.121351 Z M48.5495459,214.205925 L54.4524829,214.205925 C54.9296886,214.205925 55.3163153,213.819298 55.3163153,213.342092 C55.3163153,212.86501 54.9296886,212.47826 54.4524829,212.47826 L48.5495459,212.47826 C48.0724636,212.47826 47.6857135,212.86501 47.6857135,213.342092 C47.6857135,213.819298 48.0724636,214.205925 48.5495459,214.205925 L48.5495459,214.205925 Z M48.5495459,210.175036 L58.0665109,210.175036 C58.5437166,210.175036 58.9303433,209.788286 58.9303433,209.311203 C58.9303433,208.834121 58.5437166,208.447371 58.0665109,208.447371 L48.5495459,208.447371 C48.0724636,208.447371 47.6857135,208.834121 47.6857135,209.311203 C47.6857135,209.788286 48.0724636,210.175036 48.5495459,210.175036 L48.5495459,210.175036 Z M45.7464098,206.150564 C45.7464098,205.909061 45.9428699,205.712601 46.1844962,205.712601 L60.4318074,205.712601 C60.6733103,205.712601 60.8696471,205.909061 60.8696471,206.150564 L60.8696471,216.235067 C60.8696471,216.47657 60.6733103,216.673153 60.4318074,216.673153 L56.3095992,216.673153 C55.8325169,216.673153 55.4457668,217.05978 55.4457668,217.536986 L55.4457668,220.027168 L52.3447319,216.926133 C52.1825782,216.764103 51.9630414,216.673153 51.733879,216.673153 L46.1844962,216.673153 C45.9428699,216.673153 45.7464098,216.47657 45.7464098,216.235067 L45.7464098,206.150564 Z M46.1844962,218.400818 L51.3761289,218.400818 L55.6987463,222.723559 C55.8641085,222.888798 56.0850028,222.976538 56.309846,222.976538 C56.421157,222.976538 56.5333318,222.955066 56.6402002,222.910764 C56.9630267,222.777117 57.1734316,222.462064 57.1734316,222.112706 L57.1734316,218.400818 L60.4318074,218.400818 C61.6258706,218.400818 62.5973119,217.42913 62.5973119,216.235067 L62.5973119,206.150564 C62.5973119,204.956501 61.6258706,203.984936 60.4318074,203.984936 L46.1844962,203.984936 C44.9901862,203.984936 44.018745,204.956501 44.018745,206.150564 L44.018745,216.235067 C44.018745,217.42913 44.9901862,218.400818 46.1844962,218.400818 L46.1844962,218.400818 Z M27.3190135,262.441956 L21.1352075,262.441956 C20.6581253,262.441956 20.2713751,262.828706 20.2713751,263.305788 C20.2713751,263.782871 20.6581253,264.169621 21.1352075,264.169621 L27.3190135,264.169621 C27.7962192,264.169621 28.1828459,263.782871 28.1828459,263.305788 C28.1828459,262.828706 27.7962192,262.441956 27.3190135,262.441956 L27.3190135,262.441956 Z M21.1352075,216.494217 L27.3190135,216.494217 C27.7962192,216.494217 28.1828459,216.107467 28.1828459,215.630384 C28.1828459,215.153302 27.7962192,214.766552 27.3190135,214.766552 L21.1352075,214.766552 C20.6581253,214.766552 20.2713751,215.153302 20.2713751,215.630384 C20.2713751,216.107467 20.6581253,216.494217 21.1352075,216.494217 L21.1352075,216.494217 Z" id="search-offers"></path>
            </g>
        </g>
    </g>
</svg>