<?xml version="1.0" encoding="UTF-8"?>
<svg width="64px" height="48px" viewBox="0 0 64 48" version="1.1" xmlns="http://www.w3.org/2000/svg" xmlns:xlink="http://www.w3.org/1999/xlink">
    <!-- Generator: Sketch 39.1 (31720) - http://www.bohemiancoding.com/sketch -->
    <title>rzhd-train</title>
    <desc>Created with Sketch.</desc>
    <defs></defs>
    <g id="Page-1" stroke="none" stroke-width="1" fill="none" fill-rule="evenodd">
        <g id="главная-4" transform="translate(-466.000000, -2035.000000)" fill="#FFC055">
            <g id="Group-6" transform="translate(150.000000, 2024.000000)">
                <path d="M346,32 L348,32 L348,30 L346,30 L346,32 Z M342,32 L344,32 L344,30 L342,30 L342,32 Z M316,57 L318,57 L318,59 L320,59 L320,57 L322,57 L322,59 L324,59 L324,57 L326,57 L326,59 L328,59 L328,57 L330,57 L330,59 L332,59 L332,57 L334,57 L334,59 L336,59 L336,57 L338,57 L338,59 L340,59 L340,57 L342,57 L342,59 L344,59 L344,57 L346,57 L346,59 L348,59 L348,57 L350,57 L350,59 L352,59 L352,57 L354,57 L354,59 L356,59 L356,57 L358,57 L358,59 L360,59 L360,57 L362,57 L362,59 L364,59 L364,57 L366,57 L366,59 L368,59 L368,57 L370,57 L370,59 L372,59 L372,57 L374,57 L374,59 L376,59 L376,57 L378,57 L378,59 L380,59 L380,55 L316,55 L316,57 Z M370.652,23.021 C370.882,22.38 371,21.699 371,21 C371,17.691 368.309,15 365,15 C364.012,15 363.062,15.235 362.206,15.687 C359.494,12.617 355.983,11 352,11 C344.832,11 339,16.832 339,24 L341,24 C341,17.935 345.935,13 352,13 C355.69,13 358.791,14.555 361.216,17.62 L361.821,18.386 L362.601,17.799 C363.296,17.276 364.126,17 365,17 C367.206,17 369,18.794 369,21 C369,21.873 368.724,22.703 368.2,23.399 L366.998,25 L370,25 C374.411,25 378,28.589 378,33 L378,34 L380,34 L380,33 C380,27.705 375.863,23.358 370.652,23.021 L370.652,23.021 Z M330,32 L338,32 L338.002,34 L330,34 L330,32 Z M338,36 C339.103,36 340,35.103 340,34 L340,32 C340,30.897 339.103,30 338,30 L330,30 C328.897,30 328,30.897 328,32 L328,34 C328,35.103 328.897,36 330,36 L338,36 Z M368,47 L370,47 L370,45 L368,45 L368,47 Z M363,41 C356.729,41 352,36.271 352,30 L352,28.033 C361.433,28.539 369.86,36.033 373.739,41 L363,41 Z M322,53 L372,53 C375.309,53 378,50.309 378,47 L378,45 C378,41.392 365.543,26 351,26 L322,26 L322,28 L350,28 L350,30 C350,37.411 355.589,43 363,43 L375.148,43 C375.701,43.9 376,44.604 376,45 L372,45 L372,47 L376,47 C376,49.206 374.206,51 372,51 L351.898,51 C351.435,48.721 349.414,47 347,47 L322,47 L322,49 L347,49 C348.302,49 349.401,49.839 349.815,51 L322,51 L322,53 Z M322,34 L322,36 L324,36 C325.103,36 326,35.103 326,34 L326,32 C326,30.897 325.103,30 324,30 L322,30 L322,32 L324,32 L324,34 L322,34 Z M320,19 C320,15.691 322.691,13 326,13 C329.309,13 332,15.691 332,19 L332,24 L334,24 L334,19 C334,14.589 330.411,11 326,11 C321.589,11 318,14.589 318,19 L318,53 L320,53 L320,19 Z M322,42 L340,42 L340,40 L322,40 L322,42 Z" id="rzhd-train"></path>
            </g>
        </g>
    </g>
</svg>