<?xml version="1.0" encoding="UTF-8"?>
<svg width="104px" height="104px" viewBox="0 0 104 104" version="1.1" xmlns="http://www.w3.org/2000/svg" xmlns:xlink="http://www.w3.org/1999/xlink">
    <!-- Generator: Sketch 39.1 (31720) - http://www.bohemiancoding.com/sketch -->
    <title>rzhd-wallet</title>
    <desc>Created with Sketch.</desc>
    <defs>
        <polygon id="path-1" points="56.4371425 0.7263 -3.21204245e-14 0.7263 -3.21204245e-14 53.1 65.2396438 53.1 65.2396438 0.7263 56.4371425 0.7263 56.4371425 22.61736 -9.04109589e-05 22.61736 -9.04109589e-05 0.72576 56.4371425 0.72576"></polygon>
        <polygon id="path-3" points="0.000271232877 46.8 65.239011 46.8 65.239011 0.00648 0.000271232877 0.00648 0.000271232877 46.8"></polygon>
    </defs>
    <g id="Page-1" stroke="none" stroke-width="1" fill="none" fill-rule="evenodd">
        <g id="главная-3" transform="translate(-197.000000, -606.000000)">
            <g id="Group-7" transform="translate(197.000000, 606.000000)">
                <g id="rzhd-wallet">
                    <circle id="Oval-4" fill="#372222" cx="52" cy="52" r="52"></circle>
                    <g id="Page-1" transform="translate(19.000000, 22.000000)">
                        <g id="Group-3" transform="translate(0.000000, 0.174060)">
                            <mask id="mask-2" fill="white">
                                <use xlink:href="#path-1"></use>
                            </mask>
                            <g id="Clip-2"></g>
                            <path d="M56.4371425,17.23356 C56.4371425,20.20626 54.0141288,22.61736 51.0269507,22.61736 L5.41100548,22.61736 C2.42292329,22.61736 -9.04109589e-05,20.20626 -9.04109589e-05,17.23356 L-9.04109589e-05,6.11136 C-9.04109589e-05,3.13686 2.42292329,0.72576 5.41100548,0.72576 L51.0269507,0.72576 C54.0141288,0.72576 56.4371425,3.13686 56.4371425,6.11136 L56.4371425,17.23356 Z" id="Fill-1" fill="#5F3812" mask="url(#mask-2)"></path>
                        </g>
                        <path d="M62.423,18.342 C62.423,21.645 59.743,24.324 56.439,24.324 L5.985,24.324 C2.68,24.324 0,21.645 0,18.342 L0,5.984 C0,2.679 2.68,0 5.985,0 L56.439,0 C59.743,0 62.423,2.679 62.423,5.984 L62.423,18.342 Z" id="Fill-1" fill="#5F3812"></path>
                        <path d="M51.6247479,17.89281 C51.6247479,18.68121 50.9828301,19.32021 50.1908301,19.32021 L6.24658356,19.32021 C5.45458356,19.32021 4.81266575,18.68121 4.81266575,17.89281 L4.81266575,5.10651 C4.81266575,4.31811 5.45458356,3.67911 6.24658356,3.67911 L50.1908301,3.67911 C50.9828301,3.67911 51.6247479,4.31811 51.6247479,5.10651 L51.6247479,17.89281 Z" id="Fill-4" fill="#DDE0DE"></path>
                        <path d="M51.6247479,20.53917 C51.6247479,21.32667 50.9828301,21.96657 50.1908301,21.96657 L6.24658356,21.96657 C5.45458356,21.96657 4.81266575,21.32667 4.81266575,20.53917 L4.81266575,7.75377 C4.81266575,6.96447 5.45458356,6.32457 6.24658356,6.32457 L50.1908301,6.32457 C50.9828301,6.32457 51.6247479,6.96447 51.6247479,7.75377 L51.6247479,20.53917 Z" id="Fill-6" fill="#F16A6E"></path>
                        <path d="M51.6247479,23.06871 C51.6247479,23.85711 50.9828301,24.49791 50.1908301,24.49791 L6.24658356,24.49791 C5.45458356,24.49791 4.81266575,23.85711 4.81266575,23.06871 L4.81266575,10.28421 C4.81266575,9.49581 5.45458356,8.85591 6.24658356,8.85591 L50.1908301,8.85591 C50.9828301,8.85591 51.6247479,9.49581 51.6247479,10.28421 L51.6247479,23.06871 Z" id="Fill-8" fill="#FEFEFE"></path>
                        <path d="M5.41055342,10.71657 C5.20532055,10.71657 5.01003288,10.68147 4.81203288,10.65987 L4.81203288,22.54707 C5.01093699,22.57047 5.20532055,22.60737 5.41055342,22.60737 L51.0264986,22.60737 C51.2317315,22.60737 51.425211,22.57047 51.6250192,22.54707 L51.6250192,10.71657 L5.41055342,10.71657 Z" id="Fill-10" fill="#F2F2F3"></path>
                        <g id="Group-14" transform="translate(0.000000, 6.474060)">
                            <mask id="mask-4" fill="white">
                                <use xlink:href="#path-3"></use>
                            </mask>
                            <g id="Clip-13"></g>
                            <path d="M59.8288192,5.39118 L5.41046301,5.39118 C2.42238082,5.39118 0.000271232877,2.98008 0.000271232877,0.00648 L0.000271232877,41.41458 C0.000271232877,44.38818 2.42238082,46.80018 5.41046301,46.80018 L59.8288192,46.80018 C62.8169014,46.80018 65.239011,44.38818 65.239011,41.41458 L65.239011,10.77588 C65.239011,7.80138 62.8169014,5.39118 59.8288192,5.39118" id="Fill-12" fill="#8A5D3B" mask="url(#mask-4)"></path>
                        </g>
                        <path d="M1.83163562,14.55732 L2.58023836,14.55732" id="Stroke-15" stroke="#FEFEFE" stroke-width="0.662"></path>
                        <path d="M3.32992603,14.55732 L59.8286384,14.55732 C61.3204192,14.55732 62.5346384,15.76512 62.5346384,17.25012 L62.5346384,47.88882 C62.5346384,49.37292 61.3204192,50.57982 59.8286384,50.57982 L2.95472055,50.57982" id="Stroke-17" stroke="#FEFEFE" stroke-width="0.662" stroke-dasharray="1.659,0.83"></path>
                        <path d="M2.57987671,50.58018 L1.83127397,50.58018" id="Stroke-19" stroke="#FEFEFE" stroke-width="0.662"></path>
                        <path d="M65.2393726,28.63125 L54.459674,28.63125 C51.9643315,28.63125 49.9400301,30.64365 49.9400301,33.12855 C49.9400301,35.61435 51.9643315,37.62855 54.459674,37.62855 L65.2393726,37.62855 L65.2393726,28.63125 Z" id="Fill-21" fill="#233441"></path>
                        <path d="M65.2393726,28.13292 L54.2481123,28.13292 C51.9570986,28.13292 50.0982493,29.98332 50.0982493,32.26302 C50.0982493,34.54542 51.9570986,36.39582 54.2481123,36.39582 L65.2393726,36.39582 L65.2393726,28.13292 Z" id="Fill-23" fill="#F16A6E"></path>
                        <path d="M56.8529425,32.26203 C56.8529425,33.58953 55.7734356,34.66413 54.4407781,34.66413 C53.1081205,34.66413 52.0295178,33.58953 52.0295178,32.26203 C52.0295178,30.93813 53.1081205,29.86353 54.4407781,29.86353 C55.7734356,29.86353 56.8529425,30.93813 56.8529425,32.26203" id="Fill-25" fill="#FEFEFE"></path>
                    </g>
                </g>
            </g>
        </g>
    </g>
</svg>