<?xml version="1.0" encoding="UTF-8"?>
<svg width="104px" height="104px" viewBox="0 0 104 104" version="1.1" xmlns="http://www.w3.org/2000/svg" xmlns:xlink="http://www.w3.org/1999/xlink">
    <!-- Generator: Sketch 39.1 (31720) - http://www.bohemiancoding.com/sketch -->
    <title>rzhd-save</title>
    <desc>Created with Sketch.</desc>
    <defs>
        <polygon id="path-1" points="0 0.641936842 0 14.8501737 57.2535313 14.8501737 57.2535313 0.641936842 3.51961153e-20 0.641936842"></polygon>
        <polygon id="path-3" points="0 65.5598842 57.253791 65.5598842 57.253791 0.00017368421 0 0.00017368421"></polygon>
    </defs>
    <g id="Page-1" stroke="none" stroke-width="1" fill="none" fill-rule="evenodd">
        <g id="главная-3" transform="translate(-859.000000, -606.000000)">
            <g id="Group-7" transform="translate(197.000000, 606.000000)">
                <g id="rzhd-save" transform="translate(662.000000, 0.000000)">
                    <circle id="Oval-4-Copy-2" fill="#372222" cx="52" cy="52" r="52"></circle>
                    <g id="Page-1" transform="translate(24.000000, 16.000000)">
                        <path d="M56.2403493,30.6042 L56.2403493,63.7066737 C56.2403493,64.6454368 55.4811552,65.4053053 54.5470955,65.4053053 L2.70894627,65.4053053 C1.77315522,65.4053053 1.01482687,64.6454368 1.01482687,63.7066737 L1.01482687,30.6042 L56.2403493,30.6042 L56.2403493,30.6042 Z" id="Fill-1" fill="#8A5D3B"></path>
                        <g id="Group-5" transform="translate(0.000000, 16.059884)">
                            <mask id="mask-2" fill="white">
                                <use xlink:href="#path-1"></use>
                            </mask>
                            <g id="Clip-4"></g>
                            <path d="M57.2535313,1.76741053 L57.2535313,13.1506737 C57.2535313,13.8488842 56.8371433,14.4463579 56.2406955,14.7068842 C56.0329343,14.8015421 55.8009343,14.8501737 55.5602776,14.8501737 L1.69299403,14.8501737 C1.45147164,14.8501737 1.22206866,14.8015421 1.01517313,14.7086211 C0.41699403,14.4463579 -0.000259701492,13.8488842 -0.000259701492,13.1506737 L-0.000259701492,1.76741053 C-0.000259701492,1.14562105 0.503561194,0.641936842 1.12511343,0.641936842 L56.1316209,0.641936842 C56.7514418,0.641936842 57.2535313,1.14562105 57.2535313,1.76741053" id="Fill-3" fill="#8A5D3B" mask="url(#mask-2)"></path>
                        </g>
                        <path d="M53.8918687,33.3875763 L53.8918687,61.5357079 C53.8918687,62.2087342 53.3482269,62.7541026 52.6773313,62.7541026 L4.77798806,62.7541026 C4.10622687,62.7541026 3.56258507,62.2087342 3.56258507,61.5357079 L3.56258507,33.3875763" id="Stroke-6" stroke="#FEFEFE" stroke-width="0.662" stroke-dasharray="1.655,0.828"></path>
                        <path d="M47.8993433,33.4528816 C47.7729552,32.5471184 47.2587463,31.1784868 45.6633134,31.4806974 C45.8624179,29.6127237 44.831403,28.4785658 42.804,28.9475132 C42.9693433,28.3778289 41.7729851,26.8441974 40.9739701,27.0769342 L39.034,16.67325 L38.3258806,16.6168026 L40.0208657,27.9123553 L33.993194,36.0694342 L35.2241791,53.0861447 L43.3900597,65.4055658 L54.5477015,65.4055658 C55.4808955,65.4055658 56.2400896,64.6456974 56.2400896,63.7069342 L56.2400896,48.4644079 L47.8993433,33.4528816 Z" id="Fill-8" fill="#5F3812"></path>
                        <mask id="mask-4" fill="white">
                            <use xlink:href="#path-3"></use>
                        </mask>
                        <g id="Clip-11"></g>
                        <polygon id="Fill-10" fill="#FEFEFE" mask="url(#mask-4)" points="23.4943284 65.5598842 32.1172836 65.5598842 32.1172836 16.2891474 23.4943284 16.2891474"></polygon>
                        <polygon id="Fill-12" fill="#5F3812" mask="url(#mask-4)" points="56.2403493 30.6042 56.2403493 33.6940421 23.4937224 32.5069105 1.01569254 30.6042"></polygon>
                        <path d="M41.1485761,31.5803921 C41.1373224,31.5942868 40.2811731,32.4766026 40.2811731,32.4766026 C40.2811731,32.4766026 39.3869343,31.8834711 39.3176806,31.8417868 C39.0709642,31.6846026 38.8467552,31.49355 38.8181881,31.1913395 C38.7792328,30.7753658 39.0891433,30.4028132 39.5124567,30.3515763 C39.5202478,30.3515763 39.5271731,30.3489711 39.5340985,30.3489711 C39.670009,30.3368132 39.8024567,30.3576553 39.917591,30.4071553 C39.9634716,30.4279974 40.0084866,30.4505763 40.0491731,30.4783658 C40.0509045,30.4783658 40.0552328,30.4757605 40.0569642,30.4757605 C40.0647552,30.4757605 40.0751433,30.4757605 40.0838,30.4740237 C40.1288149,30.4314711 40.1807552,30.3923921 40.2361582,30.3576553 C40.3348448,30.3020763 40.4465164,30.2638658 40.5685761,30.2551816 C40.6274418,30.2482342 40.6871731,30.2517079 40.7417104,30.2586553 C41.1000985,30.3012079 41.3926955,30.5834447 41.425591,30.9499184 C41.4498299,31.2043658 41.3199791,31.4032342 41.1485761,31.5803921 M49.313591,50.2366816 L47.3883373,33.8982079 C47.2515612,32.7440763 46.3780985,31.9008395 45.4319194,32.0128658 L45.1748149,32.0441289 C45.2561881,31.7671026 45.2830239,31.4753132 45.2449343,31.1913395 C45.1401881,30.1639974 44.2130537,29.2356553 43.0192925,29.4162868 C42.7976806,29.4423395 42.5734716,29.4675237 42.3492627,29.49705 C42.2038299,28.5087868 41.6065164,27.9147868 40.8888746,27.6742342 C40.3989045,27.5092342 39.8483373,27.5092342 39.3514418,27.6629447 C38.4277701,27.9521289 37.6772328,28.7701816 37.7889045,30.0372079 C37.5672925,30.0623921 37.3448149,30.0875763 37.1214716,30.1153658 C35.4074418,30.3177079 34.987591,32.0484711 35.6134716,33.1756816 L35.3762776,33.2052079 C34.4309642,33.3163658 33.7765164,34.3445763 33.9132925,35.4978395 L35.8376806,51.8354447 C35.9225164,52.5727342 36.5899493,53.0981289 37.3240388,53.0121553 L48.1423373,51.7268921 C48.8772925,51.64005 49.4010239,50.9739711 49.313591,50.2366816" id="Fill-13" fill="#F16A6E" mask="url(#mask-4)"></path>
                        <path d="M37.390003,35.3135605 L36.124391,35.4655342 C36.005794,35.4802974 35.8984507,35.3951921 35.8846,35.2762184 C35.8707493,35.1563763 35.9555851,35.0495605 36.0741821,35.0356658 L37.3389284,34.8854289 C37.4575254,34.8715342 37.5648687,34.9566395 37.5787194,35.0756132 C37.5925701,35.19285 37.5077343,35.3005342 37.390003,35.3135605 M39.9220925,35.0139553 L38.6564806,35.1659289 C38.5387493,35.1798237 38.4305403,35.0947184 38.4166896,34.9766132 C38.4028388,34.8567711 38.486809,34.7516921 38.605406,34.7351921 L39.8727493,34.5849553 C39.9887493,34.5719289 40.0952269,34.6570342 40.110809,34.7734026 C40.123794,34.8923763 40.0406896,35.0009289 39.9220925,35.0139553 M42.4541821,34.71435 L41.1877045,34.8654553 C41.0699731,34.8784816 40.9626299,34.7933763 40.9487791,34.6761395 C40.9340627,34.5562974 41.0180328,34.45035 41.1374955,34.4347184 L42.4031075,34.2844816 C42.5208388,34.2714553 42.6290478,34.3556921 42.6420328,34.4746658 C42.6558836,34.5936395 42.5710478,34.7021921 42.4541821,34.71435 M44.985406,34.4138763 L43.7189284,34.5649816 C43.601197,34.5788763 43.4947194,34.4946395 43.4808687,34.3756658 C43.4661522,34.2558237 43.5518537,34.1490079 43.6695851,34.1351132 L44.935197,33.9866132 C45.0529284,33.97185 45.159406,34.0552184 45.1741224,34.1733237 C45.1871075,34.2922974 45.1031373,34.3999816 44.985406,34.4138763 M46.3038239,35.9466395 C46.1852269,35.9622711 46.0778836,35.8762974 46.0648985,35.7590605 L45.9359134,34.6804816 C45.9315851,34.6396658 45.9203313,34.6005868 45.9030179,34.5623763 C45.8519433,34.4555605 45.8978239,34.3270342 46.0051672,34.2766658 C46.1133761,34.2228237 46.2414955,34.2714553 46.2925701,34.3782711 C46.329794,34.4564289 46.3540328,34.5406658 46.3644209,34.6292447 L46.4916746,35.7095605 C46.506391,35.8267974 46.4215552,35.9344816 46.3038239,35.9466395 M35.4162716,37.4377184 C35.2976746,37.4516132 35.191197,37.3673763 35.1773463,37.2484026 L35.0275851,35.9761658 C35.0128687,35.8589289 35.0985701,35.7512447 35.2154358,35.73735 C35.3340328,35.7225868 35.4413761,35.8076921 35.4552269,35.9275342 L35.6041224,37.1962974 C35.6188388,37.3170079 35.534003,37.4238237 35.4162716,37.4377184 M46.6033463,38.4885079 C46.4847493,38.5015342 46.377406,38.4155605 46.3626896,38.2983237 L46.2129284,37.0295605 C46.1990776,36.9105868 46.2830478,36.8046395 46.4025104,36.7881395 C46.5202418,36.7751132 46.6275851,36.85935 46.6414358,36.9783237 L46.7903313,38.2470868 C46.8041821,38.3651921 46.7202119,38.4737447 46.6033463,38.4885079 M35.715794,39.97785 C35.597197,39.9908763 35.4898537,39.9057711 35.4768687,39.7876658 L35.3271075,38.5180342 C35.312391,38.3999289 35.3972269,38.2922447 35.5149582,38.27835 C35.6344209,38.2635868 35.7408985,38.3478237 35.7547493,38.4659289 L35.9045104,39.7372974 C35.9183612,39.8554026 35.834391,39.9630868 35.715794,39.97785 M46.902003,41.0277711 C46.7851373,41.0416658 46.677794,40.9582974 46.6622119,40.8384553 L46.5133164,39.5679553 C46.4986,39.44985 46.5843015,39.3430342 46.7020328,39.3274026 C46.8188985,39.3143763 46.9271075,39.40035 46.9409582,39.5193237 L47.0898537,40.7889553 C47.1045701,40.9061921 47.0197343,41.0138763 46.902003,41.0277711 M36.0153164,42.5162447 C35.8967194,42.5318763 35.7893761,42.4459026 35.7755254,42.3277974 L35.6257642,41.0564289 C35.6119134,40.9391921 35.6967493,40.8332447 35.8144806,40.8176132 C35.9330776,40.8037184 36.0395552,40.8879553 36.0542716,41.0060605 L36.2040328,42.2765605 C36.2170179,42.3937974 36.1330478,42.50235 36.0153164,42.5162447 M47.199794,43.5679026 C47.0820627,43.5817974 46.9755851,43.4966921 46.9617343,43.3777184 L46.8119731,42.1089553 C46.7981224,41.9891132 46.8820925,41.8814289 47.0015552,41.8684026 C47.1184209,41.8545079 47.2266299,41.9378763 47.2404806,42.0585868 L47.3902418,43.32735 C47.4040925,43.4463237 47.3192567,43.5540079 47.199794,43.5679026 M36.3148388,45.0555079 C36.1971075,45.0702711 36.0880328,44.9860342 36.0750478,44.8687974 L35.9244209,43.5965605 C35.9114358,43.4775868 35.995406,43.3707711 36.114003,43.3586132 C36.2326,43.3429816 36.3390776,43.4289553 36.353794,43.5479289 L36.5026896,44.8166921 C36.5165403,44.9347974 36.4325701,45.0424816 36.3148388,45.0555079 M47.5001821,46.1089026 C47.3824507,46.1210605 47.2759731,46.0376921 47.2612567,45.9169816 L47.1114955,44.64735 C47.0976448,44.5309816 47.1816149,44.4224289 47.2993463,44.4094026 C47.4170776,44.3946395 47.5252866,44.4806132 47.5391373,44.5969816 L47.6880328,45.8657447 C47.7027493,45.9847184 47.6179134,46.0906658 47.5001821,46.1089026 M36.6134955,47.5965079 C36.4957642,47.6086658 36.3892866,47.5252974 36.3745701,47.4071921 L36.224809,46.1375605 C36.2109582,46.0185868 36.295794,45.9109026 36.4126597,45.8952711 C36.5321224,45.8822447 36.6386,45.9682184 36.6524507,46.0845868 L36.8022119,47.3550868 C36.8160627,47.4749289 36.7312269,47.5817447 36.6134955,47.5965079 M47.7997045,48.6455605 C47.6819731,48.6611921 47.5746299,48.5752184 47.5616448,48.4571132 L47.4101522,47.1857447 C47.3971672,47.0685079 47.4802716,46.9608237 47.5997343,46.9477974 C47.7174657,46.9339026 47.824809,47.0181395 47.837794,47.1362447 L47.9884209,48.4050079 C48.001406,48.5239816 47.9174358,48.6316658 47.7997045,48.6455605 M36.9121522,50.1366395 C36.7952866,50.1514026 36.6879433,50.0645605 36.6732269,49.9473237 L36.5234657,48.6768237 C36.5096149,48.5561132 36.5944507,48.4501658 36.7130478,48.4345342 C36.8299134,48.4223763 36.9381224,48.5066132 36.9528388,48.62385 L37.1017343,49.89435 C37.1164507,50.0133237 37.0307493,50.1210079 36.9121522,50.1366395 M38.2279731,51.6720079 L37.6964507,51.7371395 C37.3510478,51.7779553 37.0177642,51.5912447 36.8706,51.2760079 C36.820391,51.1665868 36.8671373,51.0380605 36.9753463,50.9868237 C37.0826896,50.9373237 37.2116746,50.9850868 37.2618836,51.0927711 C37.3302716,51.2395342 37.4843612,51.3255079 37.6453761,51.3055342 L38.1777642,51.2438763 C38.2954955,51.2291132 38.4028388,51.3159553 38.4166896,51.4340605 C38.4305403,51.5512974 38.3457045,51.6581132 38.2279731,51.6720079 M40.7600627,51.3724026 L39.4935851,51.5243763 C39.3758537,51.5374026 39.2685104,51.4514289 39.2546597,51.3324553 C39.2416746,51.21435 39.3247791,51.1084026 39.4442418,51.0927711 L40.7089881,50.9451395 C40.8275851,50.9295079 40.9340627,51.0146132 40.9479134,51.1327184 C40.9617642,51.2508237 40.8769284,51.3585079 40.7600627,51.3724026 M43.2904209,51.0719289 L42.0256746,51.2221658 C41.9070776,51.2369289 41.8006,51.1518237 41.7867493,51.03285 C41.7720328,50.9156132 41.856003,50.8070605 41.9746,50.7922974 L43.2410776,50.6437974 C43.3596746,50.6299026 43.4661522,50.7141395 43.4791373,50.8322447 C43.4938537,50.9512184 43.4098836,51.0589026 43.2904209,51.0719289 M45.8233761,50.7723237 L44.5568985,50.9216921 C44.4391672,50.9364553 44.3326896,50.8530868 44.3171075,50.7341132 C44.3032567,50.6151395 44.3880925,50.5074553 44.5075552,50.4935605 L45.7714358,50.3433237 C45.8900328,50.3294289 45.9973761,50.4127974 46.0112269,50.5326395 C46.0259433,50.6507447 45.9419731,50.7584289 45.8233761,50.7723237 M47.4335254,50.5804026 L47.0881224,50.6212184 C46.970391,50.6351132 46.8639134,50.5517447 46.8483313,50.4336395 C46.8362119,50.3129289 46.9210478,50.2061132 47.0387791,50.1930868 L47.3824507,50.1522711 C47.5884806,50.1288237 47.7347791,49.9403763 47.7105403,49.7354289 C47.6975552,49.6155868 47.7815254,49.5052974 47.898391,49.4905342 C48.0161224,49.4775079 48.1234657,49.5582711 48.1381821,49.6772447 L48.1381821,49.6833237 C48.1909881,50.1262184 47.8741522,50.5291658 47.4335254,50.5804026" id="Fill-14" fill="#FEFEFE" mask="url(#mask-4)"></path>
                        <polygon id="Fill-15" fill="#FEFEFE" mask="url(#mask-4)" points="44.5203672 38.9102132 37.3041284 39.7647395 37.1985164 38.8676605 44.4138896 38.0131342"></polygon>
                        <polygon id="Fill-16" fill="#FEFEFE" mask="url(#mask-4)" points="44.7684687 41.0184789 37.5539612 41.8747421 37.4474836 40.9776632 44.6628567 40.1214"></polygon>
                        <polygon id="Fill-17" fill="#FEFEFE" mask="url(#mask-4)" points="45.0162239 43.1276132 37.8017164 43.9830079 37.6961045 43.0841921 44.9106119 42.2305342"></polygon>
                        <polygon id="Fill-18" fill="#FEFEFE" mask="url(#mask-4)" points="42.0294836 48.8190711 38.4222299 49.2463342 38.3166179 48.3501237 41.9238716 47.9228605"></polygon>
                        <path d="M39.7194388,27.6631184 C39.818991,28.5133026 39.9176776,29.3669605 40.0180955,30.2171447 C40.0778269,30.7295132 39.3870209,30.8319868 39.3272896,30.3178816 C39.228603,29.4659605 39.1290507,28.6149079 39.0286328,27.7647237 C39.2589015,27.7299868 39.4891701,27.6987237 39.7194388,27.6631184" id="Fill-19" fill="#FEFEFE" mask="url(#mask-4)"></path>
                        <path d="M39.6682776,30.6568263 C39.8587254,30.6542211 40.0500388,30.4970368 40.018009,30.2174053 C39.9184567,29.3672211 39.8189045,28.5135632 39.7193522,27.6633789 C39.6864567,27.6685895 39.6552925,27.6720632 39.622397,27.6772737 C39.7210836,28.5291947 39.8206358,29.3793789 39.9210537,30.2313 C39.9487552,30.4640368 39.8215015,30.6099316 39.6682776,30.6568263" id="Fill-20" fill="#3A342D" mask="url(#mask-4)"></path>
                        <path d="M40.4029731,27.5571711 C40.5016597,28.4090921 40.6012119,29.2592763 40.7007642,30.1094605 C40.7613612,30.6226974 40.0705552,30.7260395 40.0099582,30.2110658 C39.9112716,29.3600132 39.8108537,28.5089605 39.7121672,27.6587763 C39.9424358,27.6249079 40.1718388,27.5927763 40.4029731,27.5571711" id="Fill-21" fill="#FEFEFE" mask="url(#mask-4)"></path>
                        <path d="M40.0258866,30.1343842 C39.9289313,29.3067789 39.8328418,28.4817789 39.7358866,27.6550421 C39.7280955,27.6550421 39.7203045,27.6567789 39.7116478,27.6585158 C39.8112,28.5087 39.9116179,29.3597526 40.0094388,30.2108053 C40.0648418,30.6823579 40.6509015,30.6354632 40.6993791,30.2255684 C40.5937672,30.5633842 40.0778269,30.5764105 40.0258866,30.1343842" id="Fill-22" fill="#3A342D" mask="url(#mask-4)"></path>
                        <polygon id="Fill-23" fill="#FEFEFE" mask="url(#mask-4)" points="40.0812896 27.3221763 39.402603 27.4211763 39.3852896 27.2648605 38.1655582 16.7022553 38.8554985 16.7022553 40.0631104 27.1658605"></polygon>
                        <path d="M40.1277761,27.1568289 C40.5978358,27.0699868 40.6991194,27.9158289 40.2221343,27.9696711 C39.9208806,28.0156974 39.6204925,28.0565132 39.3175075,28.1016711 C38.8327313,28.17375 38.7375075,27.3591711 39.2231493,27.2879605 C39.5235373,27.2445395 39.8265224,27.2028553 40.1277761,27.1568289" id="Fill-24" fill="#FEFEFE" mask="url(#mask-4)"></path>
                        <polygon id="Fill-25" fill="#DCDBDA" mask="url(#mask-4)" points="20.0866985 8.21865 16.3712358 11.7444395 15.418997 12.6475974 14.725594 13.3067289 9.55493731 10.1500184 9.14374328 9.90251842 9.12556418 9.88949211 15.7098627 3.39109737"></polygon>
                        <path d="M26.4723254,16.9961289 L24.4795493,1.52781316 C24.4336687,1.17697105 24.2302358,0.864339474 23.9272507,0.684576316 C23.6242657,0.503076316 23.2546239,0.470944737 22.924803,0.597734211 L15.6713403,3.39405 L26.4723254,16.9961289 Z" id="Fill-26" fill="#FEFEFE" mask="url(#mask-4)"></path>
                        <path d="M26.4009075,16.6535368 L10.5192955,17.2197474 C10.2128478,17.2301684 9.91592239,17.1190105 9.6925791,16.9088526 C9.46923582,16.6995632 9.3385194,16.4103789 9.32813134,16.1029579 L9.12902687,9.87811579 L26.4009075,16.6535368 Z" id="Fill-27" fill="#FEFEFE" mask="url(#mask-4)"></path>
                        <polygon id="Fill-28" fill="#DCDBDA" mask="url(#mask-4)" points="36.0360925 8.05920789 39.7506896 11.5832605 40.7029284 12.4881553 41.397197 13.1446816 46.5695851 9.98710263 46.9790478 9.74133947 46.9963612 9.72918158 40.413794 3.23165526"></polygon>
                        <path d="M29.652197,16.8350368 L31.5211821,1.01848421 C31.5636,0.656352632 31.7730925,0.337642105 32.0873313,0.156142105 C32.4007045,-0.0279631579 32.7816,-0.0496736842 33.1148836,0.0927473684 L40.4523164,3.23208947 L29.652197,16.8350368 Z" id="Fill-29" fill="#FEFEFE" mask="url(#mask-4)"></path>
                        <path d="M29.7219701,16.4915763 L45.9766866,16.4663921 C46.286597,16.4646553 46.5826567,16.3396026 46.7990746,16.1164184 C47.0146269,15.8941026 47.1323582,15.5953658 47.1254328,15.2827342 L46.9938507,9.71355 L29.7219701,16.4915763 Z" id="Fill-30" fill="#FEFEFE" mask="url(#mask-4)"></path>
                        <polygon id="Fill-31" fill="#DCDBDA" mask="url(#mask-4)" points="30.5901522 11.5236 25.5978239 11.3942053 23.4665403 13.5062053 32.2851373 13.4749421"></polygon>
                        <polygon id="Fill-32" fill="#FEFEFE" mask="url(#mask-4)" points="23.4865373 16.7546211 32.2757015 16.7546211 32.2757015 13.4841474 23.4865373 13.4841474"></polygon>
                        <polygon id="Fill-33" fill="#DCDBDA" mask="url(#mask-4)" points="32.2669582 16.5627868 23.475197 16.56105 23.475197 17.5606026 32.2669582 17.5154447"></polygon>
                    </g>
                </g>
            </g>
        </g>
    </g>
</svg>