<?xml version="1.0" encoding="UTF-8"?>
<svg width="8px" height="13px" viewBox="0 0 8 13" version="1.1" xmlns="http://www.w3.org/2000/svg" xmlns:xlink="http://www.w3.org/1999/xlink">
    <!-- Generator: Sketch 39.1 (31720) - http://www.bohemiancoding.com/sketch -->
    <title>arrow</title>
    <desc>Created with Sketch.</desc>
    <defs></defs>
    <g id="Page-1" stroke="none" stroke-width="1" fill="none" fill-rule="evenodd">
        <g id="главная" transform="translate(-326.000000, -2943.000000)" fill="#FFD734">
            <g id="chevron-up" transform="translate(326.000000, 2943.000000)">
                <g id="Chevron_up">
                    <path d="M9.484,9.452 C9.048,9.898 8.441,9.933 7.908,9.452 L4,5.705 L0.092,9.452 C-0.441,9.933 -1.049,9.898 -1.482,9.452 C-1.918,9.007 -1.89,8.255 -1.482,7.837 C-1.076,7.419 3.213,3.335 3.213,3.335 C3.43,3.112 3.715,3 4,3 C4.285,3 4.57,3.112 4.789,3.335 C4.789,3.335 9.076,7.419 9.484,7.837 C9.893,8.255 9.92,9.007 9.484,9.452 L9.484,9.452 Z" id="arrow" transform="translate(4.001184, 6.399874) rotate(90.000000) translate(-4.001184, -6.399874) "></path>
                </g>
            </g>
        </g>
    </g>
</svg>