<?xml version="1.0" encoding="UTF-8"?>
<svg width="87px" height="94px" viewBox="0 0 87 94" version="1.1" xmlns="http://www.w3.org/2000/svg" xmlns:xlink="http://www.w3.org/1999/xlink">
    <!-- Generator: Sketch 39.1 (31720) - http://www.bohemiancoding.com/sketch -->
    <title>trip-business</title>
    <desc>Created with Sketch.</desc>
    <defs>
        <polygon id="path-1" points="35.492906 51.1342791 70.9858 51.1342791 70.9858 0.0102506946 1.19831225e-05 0.0102506946 1.19831225e-05 51.1342791"></polygon>
        <polygon id="path-3" points="70.9858 40.9486198 70.9858 0.0102357954 1.49789034e-05 0.0102357954 1.49789034e-05 40.9486198 28.7630306 40.9486198 70.9858 40.9486198"></polygon>
        <polygon id="path-5" points="70.9858 40.9486198 70.9858 0.0102357954 1.49789034e-05 0.0102357954 1.49789034e-05 40.9486198 70.9858 40.9486198"></polygon>
    </defs>
    <g id="Page-1" stroke="none" stroke-width="1" fill="none" fill-rule="evenodd">
        <g id="главная" transform="translate(-578.000000, -737.000000)">
            <g id="trip-business" transform="translate(578.000000, 737.000000)">
                <circle id="Oval-3-Copy" fill="#7ACDD5" cx="43.5" cy="44.5" r="43.5"></circle>
                <g id="Page-1" transform="translate(8.000000, 0.000000)">
                    <path d="M54.4885396,40.2967264 C54.4885396,41.5556547 53.9227864,42.5762544 53.2247995,42.5762544 L52.2290619,42.5762544 C51.531105,42.5762544 50.9653219,41.5556547 50.9653219,40.2967264 C50.9653219,39.0377683 51.531105,38.0171984 52.2290619,38.0171984 L53.2247995,38.0171984 C53.9227864,38.0171984 54.4885396,39.0377683 54.4885396,40.2967264" id="Fill-1" fill="#E8C76B"></path>
                    <path d="M20.5763033,40.4755176 C20.5763033,41.7344459 20.0105501,42.7550456 19.3125632,42.7550456 L18.3168257,42.7550456 C17.6188387,42.7550456 17.0530856,41.7344459 17.0530856,40.4755176 C17.0530856,39.2165595 17.6188387,38.1959896 18.3168257,38.1959896 L19.3125632,38.1959896 C20.0105501,38.1959896 20.5763033,39.2165595 20.5763033,40.4755176" id="Fill-3" fill="#E8C76B"></path>
                    <path d="M25.1313123,28.4033999 C25.015514,27.9909865 25.0616653,21.7550543 24.549574,19.4665442 C24.0373535,17.1782269 25.3873094,6.91868436 25.3873094,6.91868436 L36.8276765,2.27483052 C36.8276765,2.27483052 37.6882935,7.80041127 39.1224075,10.2602326 L25.1313123,28.4033999 Z" id="Fill-5" fill="#F2A479"></path>
                    <path d="M42.0347992,28.0805801 C39.038815,27.9629865 28.1853249,25.3667335 28.1853249,25.3667335 C28.1853249,25.3667335 25.5098461,20.0103743 28.4944864,15.3322197 C31.4787389,10.6543865 35.156488,11.3755393 35.156488,11.3755393 L36.3837294,5.23382988 L36.7922066,4.36849793 L46.0586825,17.835568 C46.0586825,17.835568 46.9108321,28.2715652 42.0347992,28.0805801" id="Fill-7" fill="#F2A479"></path>
                    <path d="M36.6368017,33.2897383 C31.4481491,33.4371964 27.0058021,32.3253294 27.0058021,32.3253294 C26.6490996,32.0903029 24.7577717,26.0235281 27.3546835,21.4873022 C29.5039153,17.732987 34.3860888,16.0981854 40.1093911,20.0861447 C49.4801921,26.6157073 45.686063,33.0325626 36.6368017,33.2897383" id="Fill-9" fill="#DD8B66"></path>
                    <polygon id="Fill-11" fill="#FFFFFF" points="23.1063801 9.6145544 23.0113969 4.69619765 39.8730251 4.8749808 40.0466151 9.42908381"></polygon>
                    <path d="M22.2186061,1.96367357 C22.2186061,1.96367357 26.6127215,0.952988022 32.6050059,0.952988022 C38.5972902,0.952988022 41.7353864,1.70153801 41.7353864,1.70153801 L40.0299271,5.25692438 C40.0299271,5.25692438 21.5925116,5.72034354 22.2186061,5.39801921 C22.8449534,5.07594939 22.2186061,4.23881636 22.2186061,1.96367357 Z" id="Fill-13" fill="#3C4443"></path>
                    <path d="M25.1714549,3.86753428 C24.7023476,4.20797061 24.0449188,4.10577542 23.7026951,3.63945157 C23.3605038,3.1729027 23.4631806,2.51884059 23.9321908,2.17853284 C24.4009426,1.83803221 25.0584361,1.9402917 25.400692,2.40664769 C25.7429157,2.87300368 25.6404328,3.52719438 25.1714549,3.86753428" id="Fill-15" fill="#E8C76B"></path>
                    <path d="M29.743814,25.9647204 C29.7962413,25.888716 29.8381832,25.8268667 29.8381832,25.8268667 C29.8381832,25.8268667 29.7962413,25.888716 29.743814,25.9647204 C29.6915343,26.0406797 29.6488541,26.102484 29.6488541,26.102484 C29.6488541,26.102484 29.6915343,26.0406797 29.743814,25.9647204" id="Fill-17" fill="#FFFFFF"></path>
                    <path d="M55.5800972,37.0685621 L55.5655976,37.0685621 C54.3078491,30.1856081 48.4573292,24.9894892 41.5133495,24.9894892 L30.2613474,24.9894892 C23.3040065,24.9894892 17.5123837,30.2114732 16.2699735,37.1141837 L16.2856415,37.1141837 C16.280279,37.372686 16.3887263,38.6476459 19.0510465,38.6525031 C21.6573457,38.6572708 22.5419697,37.3736693 22.6940955,37.1141837 L22.7005364,37.1141837 C22.7032626,37.1054527 22.7060786,37.0970197 22.7088048,37.0883484 C22.7157849,37.0755648 22.71926,37.0685621 22.71926,37.0685621 L22.7151558,37.0685621 C24.3577124,31.8481277 27.9199951,30.2643358 31.8462951,30.2643358 L39.9283719,30.2643358 C43.7474229,30.2643358 47.6534714,32.470321 49.1520508,37.0685621 L49.1491449,37.0685621 C49.1491449,37.0685621 49.1518411,37.0740749 49.1572035,37.0839978 C49.1587613,37.0888251 49.1604389,37.0935333 49.1620267,37.0983607 L49.1651423,37.0983607 C49.2879693,37.3159794 50.1531807,38.6573602 52.8172984,38.6525031 C55.7800056,38.6471095 55.5800972,37.0685621 55.5800972,37.0685621" id="Fill-19" fill="#63493B"></path>
                    <path d="M38.6003912,23.181309 L38.5872375,34.2131501 C38.5860417,35.2362915 37.5569791,36.0068221 36.2880464,35.9341056 L36.1860806,35.9282549 C34.9175358,35.8553777 33.8902507,34.967125 33.8913495,33.9441765 L33.9046002,22.9123032 C33.9056667,21.8893868 34.9349879,21.1185348 36.2035974,21.1914441 L36.3058217,21.1972949 C37.5742696,21.2700434 38.601684,22.1583926 38.6003912,23.181309" id="Fill-21" fill="#FFC4A4"></path>
                    <path d="M34.1553585,23.8451245 L34.1419462,34.8771264 C34.1409443,35.9001713 33.1117201,36.6708626 31.8430783,36.5980176 L31.7411125,36.591974 C30.4726646,36.5194183 29.445024,35.6310691 29.4462522,34.607992 L29.4597614,23.5762473 C29.4608603,22.5531702 30.4901491,21.7828325 31.7586939,21.855356 L31.8610476,21.8613675 C33.1292692,21.9338911 34.1566512,22.8221117 34.1553585,23.8451245" id="Fill-23" fill="#FFC4A4"></path>
                    <path d="M29.6950487,23.460335 L29.6835755,33.1628992 C29.6825413,34.0624998 28.6533171,34.732989 27.3849015,34.660369 L27.2826449,34.6545183 C26.0140354,34.5818661 24.9865564,33.793494 24.9878492,32.8937005 L24.9994193,23.1913613 C25.0003242,22.2916 26.02971,21.6210143 27.2983195,21.6938272 L27.4002853,21.6997101 C28.6687655,21.7721693 29.6963737,22.5605415 29.6950487,23.460335" id="Fill-25" fill="#FFC4A4"></path>
                    <path d="M43.1514683,24.0024999 L43.13825,35.0343411 C43.1369572,36.0575789 42.10783,36.8282059 40.8390266,36.7552002 L40.7370608,36.7496066 C39.4683543,36.6766008 38.4412632,35.7884767 38.4422327,34.7653674 L38.4553219,23.7336227 C38.4569055,22.7107064 39.4860004,21.9399186 40.7548361,22.0128279 L40.8568989,22.0185822 C42.1253791,22.0914273 43.1527934,22.9796157 43.1514683,24.0024999" id="Fill-27" fill="#FFC4A4"></path>
                    <path d="M44.6630667,35.2452573 C44.6630667,35.2452573 39.5473253,35.2649312 43.956998,26.6835566 C45.8343643,23.0301829 39.2384546,15.4964135 39.2384546,15.4964135 L43.9018945,14.7578049 L48.6865622,21.0691538 L47.9594217,28.4464961 L44.6630667,35.2452573 Z" id="Fill-29" fill="#F2A479"></path>
                    <g id="Group-33" transform="translate(0.000000, 42.290901)">
                        <mask id="mask-2" fill="white">
                            <use xlink:href="#path-1"></use>
                        </mask>
                        <g id="Clip-32"></g>
                        <path d="M70.985812,42.1947198 C70.985812,47.1319192 66.9620592,51.1342791 61.9984702,51.1342791 L8.98735376,51.1342791 C4.02373477,51.1342791 1.19831225e-05,47.1319192 1.19831225e-05,42.1947198 L1.19831225e-05,8.94980998 C1.19831225e-05,4.01261058 4.02373477,0.0102506946 8.98735376,0.0102506946 L61.9984702,0.0102506946 C66.9620592,0.0102506946 70.985812,4.01261058 70.985812,8.94980998 L70.985812,42.1947198 Z" id="Fill-31" fill="#785B4B" mask="url(#mask-2)"></path>
                    </g>
                    <g id="Group-36" transform="translate(0.000000, 44.376798)">
                        <mask id="mask-4" fill="white">
                            <use xlink:href="#path-3"></use>
                        </mask>
                        <g id="Clip-35"></g>
                        <path d="M0.855669831,26.7733394 C1.12532004,30.8859538 20.2801914,40.9486198 35.1335112,40.9486198 C50.4904517,40.9486198 68.6270572,31.8694246 70.0651217,26.4156974 L70.985815,8.94979508 C70.985815,4.01262548 66.9620323,0.0102357954 61.9984732,0.0102357954 L8.98732679,0.0102357954 C4.02373776,0.0102357954 1.49789034e-05,4.01262548 1.49789034e-05,8.94979508 L0.855669831,26.7733394 Z" id="Fill-34" fill="#594035" mask="url(#mask-4)"></path>
                    </g>
                    <g id="Group-39" transform="translate(0.000000, 42.290901)">
                        <mask id="mask-6" fill="white">
                            <use xlink:href="#path-5"></use>
                        </mask>
                        <g id="Clip-38"></g>
                        <path d="M0.855669831,26.7733394 C1.12532004,30.8859538 20.2801914,40.9486198 35.1335112,40.9486198 C50.4904517,40.9486198 68.6270572,31.8694246 70.0651217,26.4156974 L70.985815,8.94979508 C70.985815,4.01262548 66.9620323,0.0102357954 61.9984732,0.0102357954 L8.98732679,0.0102357954 C4.02373776,0.0102357954 1.49789034e-05,4.01262548 1.49789034e-05,8.94979508 L0.855669831,26.7733394 Z" id="Fill-37" fill="#926F62" mask="url(#mask-6)"></path>
                    </g>
                    <path d="M35.1335142,83.2395234 C36.789342,83.2395234 38.4774943,83.1337387 40.1735256,82.9385583 L40.1735256,81.0676277 C40.1735256,79.8863246 39.0757218,78.9286892 37.7214192,78.9286892 L33.2087251,78.9286892 C31.8545724,78.9286892 30.7567087,79.8863246 30.7567087,81.0676277 L30.7567087,82.9753297 C32.2415973,83.1466712 33.7074028,83.2395234 35.1335142,83.2395234" id="Fill-40" fill="#563C30"></path>
                    <path d="M38.6961833,86.5544074 C38.6961833,87.4930015 37.9312407,88.2538474 36.9876297,88.2538474 L33.8432884,88.2538474 C32.8997074,88.2538474 32.1347947,87.4930015 32.1347947,86.5544074 L32.1347947,82.1180617 C32.1347947,81.1794676 32.8997074,80.4186217 33.8432884,80.4186217 L36.9876297,80.4186217 C37.9312407,80.4186217 38.6961833,81.1794676 38.6961833,82.1180617 L38.6961833,86.5544074 Z" id="Fill-42" fill="#E8C76B"></path>
                    <path d="M8.98734177,93.4251798 L9.8605519,93.4251798 C9.75429156,88.2983724 5.38994852,84.1736001 0.0209704641,84.1736001 C0.0139603376,84.1736001 0.00698016878,84.1738683 0,84.1738683 L0,84.4856205 C0,89.4228199 4.02372278,93.4251798 8.98734177,93.4251798" id="Fill-44" fill="#5E4338"></path>
                    <path d="M61.0615278,93.4251798 L61.9984582,93.4251798 C66.9620473,93.4251798 70.9858,89.4228199 70.9858,84.4856205 L70.9858,84.1746431 C70.9575797,84.1744345 70.9294793,84.1736001 70.9011392,84.1736001 C65.5321612,84.1736001 61.1678181,88.2983724 61.0615278,93.4251798" id="Fill-46" fill="#5E4338"></path>
                    <path d="M37.6175825,83.9115906 L37.6175825,83.8159671 C37.6175825,82.5815331 36.6115395,81.5808389 35.3705074,81.5808389 C34.1294753,81.5808389 33.1234323,82.5815331 33.1234323,83.8159671 L33.1234323,83.9115906 L37.6175825,83.9115906 Z" id="Fill-48" fill="#FFEBB6"></path>
                </g>
            </g>
        </g>
    </g>
</svg>