<?xml version="1.0" encoding="UTF-8"?>
<svg width="97px" height="70px" viewBox="0 0 97 70" version="1.1" xmlns="http://www.w3.org/2000/svg" xmlns:xlink="http://www.w3.org/1999/xlink">
    <!-- Generator: Sketch 39.1 (31720) - http://www.bohemiancoding.com/sketch -->
    <title>hotels-best</title>
    <desc>Created with Sketch.</desc>
    <defs></defs>
    <g id="Page-1" stroke="none" stroke-width="1" fill="none" fill-rule="evenodd">
        <g id="главная-4-copy" transform="translate(-150.000000, -1564.000000)">
            <g id="Group-3" transform="translate(150.000000, 1564.000000)">
                <g id="Group-5">
                    <g id="hotels-best">
                        <path d="M86.4000825,69.906002 C86.1423892,69.906002 85.8908905,69.7990678 85.7112486,69.6001204 L74.5697328,57.2716007 L38.5794033,57.2716007 C38.0664946,57.2716007 37.6502209,56.8538112 37.6502209,56.3390349 L37.6502209,44.4133836 C37.6502209,43.8973638 38.0664946,43.4808178 38.5794033,43.4808178 C39.0923119,43.4808178 39.5085856,43.8973638 39.5085856,44.4133836 L39.5085856,55.4064691 L74.9822898,55.4064691 C75.2436998,55.4064691 75.4939595,55.5171336 75.6698847,55.7123507 L85.4709001,66.5574691 L85.4709001,56.3390349 C85.4709001,55.8242586 85.8871738,55.4064691 86.4000825,55.4064691 L94.825908,55.4064691 L94.825908,13.8103046 L58.2024955,13.8103046 C57.6895869,13.8103046 57.2733132,13.3925151 57.2733132,12.8777388 C57.2733132,12.3629625 57.6895869,11.945173 58.2024955,11.945173 L95.7550903,11.945173 C96.267999,11.945173 96.6842727,12.3629625 96.6842727,12.8777388 L96.6842727,56.3390349 C96.6842727,56.8538112 96.267999,57.2716007 95.7550903,57.2716007 L87.3292648,57.2716007 L87.3292648,68.9734362 C87.3292648,69.3588967 87.092633,69.7045678 86.7345881,69.8438309 C86.6255641,69.8848638 86.5128233,69.906002 86.4000825,69.906002" id="Fill-1" fill="#FFE613"></path>
                        <path d="M1.85836469,43.4639072 L10.286668,43.4639072 C10.7995767,43.4639072 11.2158504,43.8816967 11.2158504,44.396473 L11.2158504,54.6136638 L21.0156269,43.7697888 C21.1915521,43.5745717 21.4430507,43.4639072 21.7044607,43.4639072 L57.1806427,43.4639072 L57.1806427,1.86525592 L1.85836469,1.86525592 L1.85836469,43.4639072 Z M10.286668,57.9621967 C10.1739272,57.9621967 10.0611865,57.9410586 9.95216239,57.8987822 C9.59411746,57.7607625 9.35748569,57.4150914 9.35748569,57.0296309 L9.35748569,45.3290388 L0.929182347,45.3290388 C0.416273691,45.3290388 0,44.9112493 0,44.396473 L0,0.932690132 C0,0.417913816 0.416273691,0.000124342105 0.929182347,0.000124342105 L58.1098251,0.000124342105 C58.6227337,0.000124342105 59.0390074,0.417913816 59.0390074,0.932690132 L59.0390074,44.396473 C59.0390074,44.9112493 58.6227337,45.3290388 58.1098251,45.3290388 L22.1157788,45.3290388 L10.9755019,57.6563151 C10.79586,57.8540191 10.5443613,57.9621967 10.286668,57.9621967 L10.286668,57.9621967 Z" id="Fill-3" fill="#ACE5FF"></path>
                        <path d="M23.3608831,36.5284776 C22.8479745,36.5284776 22.4317008,36.1119316 22.4317008,35.5971553 C22.4317008,35.0823789 22.8454966,34.6633461 23.3596442,34.6633461 L41.5294953,34.6347474 C41.6360415,34.6136092 41.9940864,34.1896026 41.9940864,33.4074908 C41.9940864,32.6403 41.5443622,32.1553658 41.395693,32.1354711 L40.7266817,32.1081158 C40.2212065,32.0869776 39.8086496,31.6617276 39.8197997,31.1556553 C39.829711,30.6483395 40.2261622,30.2404974 40.7316374,30.2404974 L41.3176417,30.2404974 C41.5493178,30.2404974 41.9940864,29.6585763 41.9940864,28.7471487 C41.9940864,27.7772803 41.519584,27.1617868 41.3201195,27.1617868 L40.6833199,27.1294579 C40.1803225,27.1033461 39.7900659,26.6805829 39.802455,26.1745105 C39.816083,25.6696816 40.2274011,25.2655697 40.7316374,25.2655697 L41.3176417,25.2655697 C41.5555124,25.2655697 41.9940864,24.7172211 41.9940864,23.8219579 C41.9940864,22.8707408 41.5381676,22.2664382 41.3461366,22.2664382 L40.7390708,22.2664382 C40.3017357,22.2664382 39.9238682,21.9605566 39.8309499,21.5315763 C39.7714823,21.2567803 39.8346667,20.9521421 40.0118308,20.7320566 C40.187756,20.5119711 40.4504048,20.3677342 40.7316374,20.3677342 L41.3176417,20.3677342 C41.5926797,20.3677342 41.9940864,19.8915039 41.9940864,19.1454513 C41.9940864,18.4006421 41.5926797,17.9256553 41.3176417,17.9256553 L33.704541,17.9256553 C33.4109194,17.9256553 33.1346425,17.7863921 32.9599562,17.5501421 C32.784031,17.3138921 32.729519,17.0080105 32.8137649,16.7257539 C32.8657991,16.5541618 32.9091609,16.4360368 32.9364169,16.3813263 C33.1011919,15.890175 34.706819,10.4626421 34.7018634,9.65566184 C34.6969077,9.59970789 34.6969077,9.57235263 34.7018634,9.51639868 C34.7749591,8.51420132 34.6262899,7.72960263 34.3041733,7.41750395 C34.2162107,7.33295132 34.0650637,7.22726053 33.7751589,7.25834605 C33.4233085,7.29689211 33.1532261,7.52195132 33.1073865,7.63137237 C32.2649278,10.6678066 31.1015915,12.7306421 30.2516994,14.2376684 C30.0534738,14.5982605 28.416874,17.9430632 28.2359932,18.5548263 C28.1752866,19.0124053 27.7862689,19.36305 27.3154832,19.36305 L22.9000087,19.36305 C22.3871,19.36305 21.9708263,18.9452605 21.9708263,18.4304842 C21.9708263,17.9157079 22.3871,17.4979184 22.9000087,17.4979184 L26.6625777,17.4979184 C27.2584933,15.9859184 28.6175774,13.3486224 28.6349221,13.3175368 C29.4364967,11.8950632 30.5366486,9.94537895 31.3568069,7.01712237 C31.7284799,6.11315526 32.6043891,5.51009605 33.5756944,5.40440526 C34.3425795,5.31985263 35.0623861,5.55858947 35.5951173,6.07585263 C36.3446578,6.79952368 36.670491,7.98947763 36.5577503,9.60841184 C36.561467,10.6877013 35.530694,14.2090697 34.9607955,16.0605237 L41.3176417,16.0605237 C42.7386712,16.0605237 43.8524511,17.4158526 43.8524511,19.1454513 C43.8524511,20.0220632 43.5675019,20.8016882 43.1004329,21.3587408 C43.566263,21.9754776 43.8524511,22.8458724 43.8524511,23.8219579 C43.8524511,24.7856092 43.5513961,25.6410829 43.0645045,26.2404118 C43.5464404,26.8695829 43.8524511,27.7611158 43.8524511,28.7471487 C43.8524511,29.7033395 43.5650241,30.5538395 43.0967162,31.1606289 C43.5575906,31.7350895 43.8524511,32.5370961 43.8524511,33.4074908 C43.8524511,35.1408197 42.8328284,36.4998789 41.5307342,36.4998789 L23.362122,36.5284776 L23.3608831,36.5284776 Z" id="Fill-5" fill="#ACE5FF"></path>
                        <path d="M22.8702748,38.5041493 L15.1097439,38.5041493 C14.5968352,38.5041493 14.1805615,38.0863599 14.1805615,37.5715836 C14.1805615,37.0568072 14.5968352,36.6390178 15.1097439,36.6390178 L21.9410925,36.6390178 L21.9410925,17.1396888 L15.1122217,17.1570967 L15.1097439,17.1570967 C14.5968352,17.1570967 14.1818004,16.7417941 14.1805615,16.2270178 C14.1793226,15.7122414 14.5943574,15.2932086 15.1072661,15.2919651 L22.867797,15.2720704 L22.8702748,15.2720704 C23.1168179,15.2720704 23.3522107,15.3703007 23.526897,15.545623 C23.7015833,15.719702 23.7994572,15.9571954 23.7994572,16.2046362 L23.7994572,37.5715836 C23.7994572,38.0863599 23.3831835,38.5041493 22.8702748,38.5041493" id="Fill-7" fill="#ACE5FF"></path>
                        <path d="M85.1526242,25.6230533 L64.6176943,25.6230533 C64.1047857,25.6230533 63.688512,25.2052638 63.688512,24.6904875 C63.688512,24.1757112 64.1047857,23.7579217 64.6176943,23.7579217 L85.1526242,23.7579217 C85.6655329,23.7579217 86.0818065,24.1757112 86.0818065,24.6904875 C86.0818065,25.2052638 85.6655329,25.6230533 85.1526242,25.6230533" id="Fill-9" fill="#FFE613"></path>
                        <path d="M85.1526242,35.1915513 L64.6176943,35.1915513 C64.1047857,35.1915513 63.688512,34.7737618 63.688512,34.2589855 C63.688512,33.7442092 64.1047857,33.3264197 64.6176943,33.3264197 L85.1526242,33.3264197 C85.6655329,33.3264197 86.0818065,33.7442092 86.0818065,34.2589855 C86.0818065,34.7737618 85.6655329,35.1915513 85.1526242,35.1915513" id="Fill-11" fill="#FFE613"></path>
                        <path d="M85.1526242,44.7606711 L64.6176943,44.7606711 C64.1047857,44.7606711 63.688512,44.3428816 63.688512,43.8281053 C63.688512,43.3133289 64.1047857,42.8955395 64.6176943,42.8955395 L85.1526242,42.8955395 C85.6655329,42.8955395 86.0818065,43.3133289 86.0818065,43.8281053 C86.0818065,44.3428816 85.6655329,44.7606711 85.1526242,44.7606711" id="Fill-13" fill="#FFE613"></path>
                    </g>
                </g>
            </g>
        </g>
    </g>
</svg>